   1.0000000e+01   1.4911420e-21
   1.0023060e+01   1.4775405e-21
   1.0046173e+01   1.4640631e-21
   1.0069340e+01   1.4507087e-21
   1.0092560e+01   1.4374762e-21
   1.0115833e+01   1.4243645e-21
   1.0139161e+01   1.4113724e-21
   1.0162542e+01   1.3984990e-21
   1.0185976e+01   1.3857430e-21
   1.0209465e+01   1.3731034e-21
   1.0233008e+01   1.3605792e-21
   1.0256606e+01   1.3481693e-21
   1.0280258e+01   1.3358726e-21
   1.0303964e+01   1.3236881e-21
   1.0327725e+01   1.3116149e-21
   1.0351541e+01   1.2996517e-21
   1.0375412e+01   1.2877978e-21
   1.0399337e+01   1.2760520e-21
   1.0423318e+01   1.2644133e-21
   1.0447355e+01   1.2528809e-21
   1.0471446e+01   1.2414537e-21
   1.0495594e+01   1.2301308e-21
   1.0519796e+01   1.2189113e-21
   1.0544055e+01   1.2077942e-21
   1.0568370e+01   1.1967786e-21
   1.0592741e+01   1.1858636e-21
   1.0617168e+01   1.1750483e-21
   1.0641651e+01   1.1643318e-21
   1.0666191e+01   1.1537132e-21
   1.0690787e+01   1.1431915e-21
   1.0715440e+01   1.1327660e-21
   1.0740150e+01   1.1224356e-21
   1.0764917e+01   1.1121995e-21
   1.0789741e+01   1.1020569e-21
   1.0814622e+01   1.0920069e-21
   1.0839560e+01   1.0820486e-21
   1.0864557e+01   1.0721812e-21
   1.0889610e+01   1.0624039e-21
   1.0914722e+01   1.0527157e-21
   1.0939891e+01   1.0431160e-21
   1.0965119e+01   1.0336039e-21
   1.0990404e+01   1.0241786e-21
   1.1015748e+01   1.0148392e-21
   1.1041151e+01   1.0055851e-21
   1.1066612e+01   9.9641538e-22
   1.1092131e+01   9.8732937e-22
   1.1117710e+01   9.7832630e-22
   1.1143347e+01   9.6940543e-22
   1.1169044e+01   9.6056602e-22
   1.1194800e+01   9.5180734e-22
   1.1220615e+01   9.4312868e-22
   1.1246490e+01   9.3452933e-22
   1.1272425e+01   9.2600862e-22
   1.1298419e+01   9.1756588e-22
   1.1324473e+01   9.0920042e-22
   1.1350587e+01   9.0091160e-22
   1.1376762e+01   8.9269876e-22
   1.1402997e+01   8.8456125e-22
   1.1429292e+01   8.7649840e-22
   1.1455648e+01   8.6850951e-22
   1.1482065e+01   8.6059385e-22
   1.1508543e+01   8.5275071e-22
   1.1535082e+01   8.4497939e-22
   1.1561682e+01   8.3727917e-22
   1.1588343e+01   8.2964938e-22
   1.1615066e+01   8.2208931e-22
   1.1641850e+01   8.1459831e-22
   1.1668696e+01   8.0717575e-22
   1.1695605e+01   7.9982100e-22
   1.1722575e+01   7.9253346e-22
   1.1749607e+01   7.8531251e-22
   1.1776702e+01   7.7815755e-22
   1.1803859e+01   7.7106797e-22
   1.1831079e+01   7.6404317e-22
   1.1858361e+01   7.5708255e-22
   1.1885707e+01   7.5018549e-22
   1.1913115e+01   7.4335139e-22
   1.1940587e+01   7.3657966e-22
   1.1968122e+01   7.2986970e-22
   1.1995721e+01   7.2322092e-22
   1.2023383e+01   7.1663274e-22
   1.2051109e+01   7.1010462e-22
   1.2078899e+01   7.0363605e-22
   1.2106753e+01   6.9722649e-22
   1.2134671e+01   6.9087543e-22
   1.2162654e+01   6.8458238e-22
   1.2190701e+01   6.7834682e-22
   1.2218813e+01   6.7216826e-22
   1.2246989e+01   6.6604621e-22
   1.2275231e+01   6.5998015e-22
   1.2303538e+01   6.5396959e-22
   1.2331910e+01   6.4801406e-22
   1.2360347e+01   6.4211305e-22
   1.2388850e+01   6.3626610e-22
   1.2417419e+01   6.3047272e-22
   1.2446054e+01   6.2473242e-22
   1.2474755e+01   6.1904469e-22
   1.2503521e+01   6.1340903e-22
   1.2532355e+01   6.0782493e-22
   1.2561254e+01   6.0229189e-22
   1.2590221e+01   5.9680943e-22
   1.2619254e+01   5.9137704e-22
   1.2648354e+01   5.8599425e-22
   1.2677521e+01   5.8066060e-22
   1.2706756e+01   5.7537560e-22
   1.2736058e+01   5.7013881e-22
   1.2765427e+01   5.6494975e-22
   1.2794864e+01   5.5980798e-22
   1.2824369e+01   5.5471304e-22
   1.2853942e+01   5.4966449e-22
   1.2883584e+01   5.4466188e-22
   1.2913293e+01   5.3970478e-22
   1.2943071e+01   5.3479276e-22
   1.2972918e+01   5.2992537e-22
   1.3002834e+01   5.2510220e-22
   1.3032818e+01   5.2032282e-22
   1.3062872e+01   5.1558679e-22
   1.3092995e+01   5.1089369e-22
   1.3123188e+01   5.0624306e-22
   1.3153450e+01   5.0163450e-22
   1.3183782e+01   4.9706758e-22
   1.3214184e+01   4.9254188e-22
   1.3244656e+01   4.8805703e-22
   1.3275198e+01   4.8361271e-22
   1.3305811e+01   4.7920861e-22
   1.3336494e+01   4.7484441e-22
   1.3367248e+01   4.7051982e-22
   1.3398073e+01   4.6623453e-22
   1.3428969e+01   4.6198824e-22
   1.3459937e+01   4.5778060e-22
   1.3490975e+01   4.5361129e-22
   1.3522086e+01   4.4947997e-22
   1.3553268e+01   4.4538631e-22
   1.3584522e+01   4.4132998e-22
   1.3615848e+01   4.3731066e-22
   1.3647246e+01   4.3332801e-22
   1.3678716e+01   4.2938171e-22
   1.3710260e+01   4.2547140e-22
   1.3741876e+01   4.2159677e-22
   1.3773565e+01   4.1775748e-22
   1.3805326e+01   4.1395321e-22
   1.3837162e+01   4.1018364e-22
   1.3869070e+01   4.0644845e-22
   1.3901052e+01   4.0274734e-22
   1.3933108e+01   3.9907999e-22
   1.3965238e+01   3.9544610e-22
   1.3997442e+01   3.9184536e-22
   1.4029720e+01   3.8827749e-22
   1.4062073e+01   3.8474217e-22
   1.4094500e+01   3.8123911e-22
   1.4127002e+01   3.7776801e-22
   1.4159579e+01   3.7432859e-22
   1.4192231e+01   3.7092054e-22
   1.4224959e+01   3.6754358e-22
   1.4257762e+01   3.6419744e-22
   1.4290640e+01   3.6088185e-22
   1.4323594e+01   3.5759653e-22
   1.4356625e+01   3.5434122e-22
   1.4389731e+01   3.5111565e-22
   1.4422914e+01   3.4791955e-22
   1.4456173e+01   3.4475266e-22
   1.4489510e+01   3.4161466e-22
   1.4522922e+01   3.3850526e-22
   1.4556412e+01   3.3542419e-22
   1.4589980e+01   3.3237114e-22
   1.4623624e+01   3.2934583e-22
   1.4657346e+01   3.2634799e-22
   1.4691146e+01   3.2337734e-22
   1.4725024e+01   3.2043360e-22
   1.4758980e+01   3.1751650e-22
   1.4793015e+01   3.1462578e-22
   1.4827127e+01   3.1176117e-22
   1.4861319e+01   3.0892246e-22
   1.4895589e+01   3.0610945e-22
   1.4929939e+01   3.0332192e-22
   1.4964367e+01   3.0055969e-22
   1.4998875e+01   2.9782256e-22
   1.5033463e+01   2.9511033e-22
   1.5068130e+01   2.9242278e-22
   1.5102877e+01   2.8975971e-22
   1.5137704e+01   2.8712091e-22
   1.5172612e+01   2.8450618e-22
   1.5207600e+01   2.8191530e-22
   1.5242669e+01   2.7934808e-22
   1.5277819e+01   2.7680431e-22
   1.5313050e+01   2.7428381e-22
   1.5348362e+01   2.7178638e-22
   1.5383755e+01   2.6931183e-22
   1.5419230e+01   2.6685996e-22
   1.5454787e+01   2.6443058e-22
   1.5490426e+01   2.6202348e-22
   1.5526147e+01   2.5963846e-22
   1.5561950e+01   2.5727532e-22
   1.5597836e+01   2.5493386e-22
   1.5633805e+01   2.5261388e-22
   1.5669857e+01   2.5031524e-22
   1.5705991e+01   2.4803778e-22
   1.5742210e+01   2.4578135e-22
   1.5778511e+01   2.4354581e-22
   1.5814897e+01   2.4133099e-22
   1.5851366e+01   2.3913672e-22
   1.5887919e+01   2.3696274e-22
   1.5924557e+01   2.3480882e-22
   1.5961279e+01   2.3267472e-22
   1.5998086e+01   2.3056020e-22
   1.6034978e+01   2.2846504e-22
   1.6071954e+01   2.2638903e-22
   1.6109016e+01   2.2433196e-22
   1.6146164e+01   2.2229364e-22
   1.6183397e+01   2.2027387e-22
   1.6220716e+01   2.1827245e-22
   1.6258121e+01   2.1628924e-22
   1.6295613e+01   2.1432414e-22
   1.6333190e+01   2.1237704e-22
   1.6370855e+01   2.1044784e-22
   1.6408606e+01   2.0853643e-22
   1.6446445e+01   2.0664268e-22
   1.6484370e+01   2.0476639e-22
   1.6522383e+01   2.0290736e-22
   1.6560484e+01   2.0106540e-22
   1.6598673e+01   1.9924031e-22
   1.6636949e+01   1.9743191e-22
   1.6675314e+01   1.9564005e-22
   1.6713768e+01   1.9386462e-22
   1.6752310e+01   1.9210546e-22
   1.6790941e+01   1.9036246e-22
   1.6829661e+01   1.8863548e-22
   1.6868470e+01   1.8692435e-22
   1.6907369e+01   1.8522890e-22
   1.6946357e+01   1.8354895e-22
   1.6985436e+01   1.8188434e-22
   1.7024604e+01   1.8023489e-22
   1.7063863e+01   1.7860053e-22
   1.7103213e+01   1.7698122e-22
   1.7142653e+01   1.7537694e-22
   1.7182184e+01   1.7378765e-22
   1.7221806e+01   1.7221332e-22
   1.7261520e+01   1.7065388e-22
   1.7301325e+01   1.6910925e-22
   1.7341222e+01   1.6757936e-22
   1.7381211e+01   1.6606413e-22
   1.7421292e+01   1.6456353e-22
   1.7461466e+01   1.6307738e-22
   1.7501732e+01   1.6160544e-22
   1.7542091e+01   1.6014743e-22
   1.7582543e+01   1.5870304e-22
   1.7623089e+01   1.5727196e-22
   1.7663728e+01   1.5585398e-22
   1.7704460e+01   1.5444896e-22
   1.7745287e+01   1.5305680e-22
   1.7786208e+01   1.5167738e-22
   1.7827223e+01   1.5031059e-22
   1.7868333e+01   1.4895628e-22
   1.7909537e+01   1.4761429e-22
   1.7950837e+01   1.4628442e-22
   1.7992231e+01   1.4496650e-22
   1.8033722e+01   1.4366036e-22
   1.8075308e+01   1.4236582e-22
   1.8116989e+01   1.4108271e-22
   1.8158767e+01   1.3981089e-22
   1.8200642e+01   1.3855020e-22
   1.8242612e+01   1.3730047e-22
   1.8284680e+01   1.3606158e-22
   1.8326845e+01   1.3483341e-22
   1.8369106e+01   1.3361585e-22
   1.8411466e+01   1.3240877e-22
   1.8453923e+01   1.3121210e-22
   1.8496478e+01   1.3002581e-22
   1.8539131e+01   1.2884987e-22
   1.8581882e+01   1.2768427e-22
   1.8624732e+01   1.2652898e-22
   1.8667681e+01   1.2538396e-22
   1.8710728e+01   1.2424917e-22
   1.8753876e+01   1.2312456e-22
   1.8797122e+01   1.2201009e-22
   1.8840468e+01   1.2090570e-22
   1.8883915e+01   1.1981141e-22
   1.8927461e+01   1.1872719e-22
   1.8971108e+01   1.1765305e-22
   1.9014856e+01   1.1658895e-22
   1.9058704e+01   1.1553482e-22
   1.9102653e+01   1.1449052e-22
   1.9146704e+01   1.1345589e-22
   1.9190857e+01   1.1243082e-22
   1.9235111e+01   1.1141522e-22
   1.9279467e+01   1.1040918e-22
   1.9323926e+01   1.0941288e-22
   1.9368487e+01   1.0842642e-22
   1.9413151e+01   1.0744987e-22
   1.9457918e+01   1.0648314e-22
   1.9502788e+01   1.0552590e-22
   1.9547762e+01   1.0457782e-22
   1.9592839e+01   1.0363856e-22
   1.9638020e+01   1.0270785e-22
   1.9683305e+01   1.0178558e-22
   1.9728695e+01   1.0087172e-22
   1.9774190e+01   9.9966236e-23
   1.9819789e+01   9.9069110e-23
   1.9865494e+01   9.8180282e-23
   1.9911304e+01   9.7299665e-23
   1.9957219e+01   9.6427171e-23
   2.0003241e+01   9.5562714e-23
   2.0049369e+01   9.4706212e-23
   2.0095603e+01   9.3857593e-23
   2.0141943e+01   9.3016788e-23
   2.0188391e+01   9.2183732e-23
   2.0234945e+01   9.1358355e-23
   2.0281607e+01   9.0540590e-23
   2.0328377e+01   8.9730365e-23
   2.0375254e+01   8.8927612e-23
   2.0422240e+01   8.8132262e-23
   2.0469333e+01   8.7344247e-23
   2.0516536e+01   8.6563501e-23
   2.0563847e+01   8.5789957e-23
   2.0611268e+01   8.5023552e-23
   2.0658797e+01   8.4264220e-23
   2.0706437e+01   8.3511898e-23
   2.0754186e+01   8.2766520e-23
   2.0802045e+01   8.2028025e-23
   2.0850015e+01   8.1296349e-23
   2.0898095e+01   8.0571431e-23
   2.0946286e+01   7.9853211e-23
   2.0994589e+01   7.9141628e-23
   2.1043002e+01   7.8436623e-23
   2.1091528e+01   7.7738136e-23
   2.1140165e+01   7.7046109e-23
   2.1188914e+01   7.6360484e-23
   2.1237776e+01   7.5681203e-23
   2.1286750e+01   7.5008208e-23
   2.1335838e+01   7.4341444e-23
   2.1385039e+01   7.3680854e-23
   2.1434353e+01   7.3026381e-23
   2.1483780e+01   7.2377971e-23
   2.1533322e+01   7.1735570e-23
   2.1582978e+01   7.1099122e-23
   2.1632749e+01   7.0468575e-23
   2.1682634e+01   6.9843874e-23
   2.1732634e+01   6.9224968e-23
   2.1782750e+01   6.8611804e-23
   2.1832981e+01   6.8004331e-23
   2.1883328e+01   6.7402496e-23
   2.1933791e+01   6.6806250e-23
   2.1984371e+01   6.6215542e-23
   2.2035067e+01   6.5630322e-23
   2.2085880e+01   6.5050540e-23
   2.2136810e+01   6.4476148e-23
   2.2187858e+01   6.3907097e-23
   2.2239023e+01   6.3343339e-23
   2.2290306e+01   6.2784827e-23
   2.2341708e+01   6.2231512e-23
   2.2393228e+01   6.1683350e-23
   2.2444867e+01   6.1140292e-23
   2.2496625e+01   6.0602294e-23
   2.2548503e+01   6.0069309e-23
   2.2600500e+01   5.9541292e-23
   2.2652617e+01   5.9018199e-23
   2.2704854e+01   5.8499985e-23
   2.2757211e+01   5.7986608e-23
   2.2809689e+01   5.7478026e-23
   2.2862289e+01   5.6974194e-23
   2.2915009e+01   5.6475067e-23
   2.2967852e+01   5.5980599e-23
   2.3020816e+01   5.5490743e-23
   2.3073902e+01   5.5005456e-23
   2.3127110e+01   5.4524697e-23
   2.3180442e+01   5.4048427e-23
   2.3233896e+01   5.3576605e-23
   2.3287474e+01   5.3109192e-23
   2.3341175e+01   5.2646150e-23
   2.3395000e+01   5.2187440e-23
   2.3448949e+01   5.1733025e-23
   2.3503022e+01   5.1282869e-23
   2.3557220e+01   5.0836933e-23
   2.3611543e+01   5.0395182e-23
   2.3665992e+01   4.9957578e-23
   2.3720566e+01   4.9524085e-23
   2.3775265e+01   4.9094664e-23
   2.3830091e+01   4.8669279e-23
   2.3885044e+01   4.8247896e-23
   2.3940123e+01   4.7830487e-23
   2.3995329e+01   4.7417020e-23
   2.4050662e+01   4.7007467e-23
   2.4106123e+01   4.6601796e-23
   2.4161712e+01   4.6199976e-23
   2.4217429e+01   4.5801979e-23
   2.4273275e+01   4.5407767e-23
   2.4329249e+01   4.5017296e-23
   2.4385353e+01   4.4630521e-23
   2.4441586e+01   4.4247399e-23
   2.4497948e+01   4.3867896e-23
   2.4554441e+01   4.3491981e-23
   2.4611063e+01   4.3119627e-23
   2.4667817e+01   4.2750803e-23
   2.4724701e+01   4.2385478e-23
   2.4781716e+01   4.2023619e-23
   2.4838863e+01   4.1665196e-23
   2.4896142e+01   4.1310176e-23
   2.4953552e+01   4.0958529e-23
   2.5011095e+01   4.0610225e-23
   2.5068771e+01   4.0265234e-23
   2.5126580e+01   3.9923531e-23
   2.5184522e+01   3.9585092e-23
   2.5242598e+01   3.9249893e-23
   2.5300807e+01   3.8917905e-23
   2.5359151e+01   3.8589100e-23
   2.5417630e+01   3.8263447e-23
   2.5476243e+01   3.7940918e-23
   2.5534991e+01   3.7621484e-23
   2.5593875e+01   3.7305117e-23
   2.5652895e+01   3.6991789e-23
   2.5712050e+01   3.6681471e-23
   2.5771343e+01   3.6374137e-23
   2.5830772e+01   3.6069760e-23
   2.5890338e+01   3.5768311e-23
   2.5950041e+01   3.5469764e-23
   2.6009882e+01   3.5174094e-23
   2.6069861e+01   3.4881272e-23
   2.6129978e+01   3.4591273e-23
   2.6190234e+01   3.4304072e-23
   2.6250629e+01   3.4019642e-23
   2.6311163e+01   3.3737958e-23
   2.6371837e+01   3.3458995e-23
   2.6432650e+01   3.3182726e-23
   2.6493604e+01   3.2909129e-23
   2.6554699e+01   3.2638177e-23
   2.6615934e+01   3.2369847e-23
   2.6677311e+01   3.2104113e-23
   2.6738829e+01   3.1840952e-23
   2.6800489e+01   3.1580341e-23
   2.6862291e+01   3.1322255e-23
   2.6924236e+01   3.1066670e-23
   2.6986323e+01   3.0813565e-23
   2.7048554e+01   3.0562914e-23
   2.7110928e+01   3.0314697e-23
   2.7173446e+01   3.0068890e-23
   2.7236108e+01   2.9825471e-23
   2.7298915e+01   2.9584419e-23
   2.7361866e+01   2.9345709e-23
   2.7424963e+01   2.9109322e-23
   2.7488205e+01   2.8875237e-23
   2.7551593e+01   2.8643433e-23
   2.7615127e+01   2.8413892e-23
   2.7678808e+01   2.8186596e-23
   2.7742636e+01   2.7961524e-23
   2.7806610e+01   2.7738660e-23
   2.7870732e+01   2.7517984e-23
   2.7935003e+01   2.7299478e-23
   2.7999421e+01   2.7083123e-23
   2.8063988e+01   2.6868902e-23
   2.8128704e+01   2.6656797e-23
   2.8193569e+01   2.6446789e-23
   2.8258583e+01   2.6238861e-23
   2.8323748e+01   2.6032996e-23
   2.8389062e+01   2.5829176e-23
   2.8454528e+01   2.5627383e-23
   2.8520144e+01   2.5427600e-23
   2.8585912e+01   2.5229811e-23
   2.8651831e+01   2.5033997e-23
   2.8717903e+01   2.4840143e-23
   2.8784126e+01   2.4648231e-23
   2.8850503e+01   2.4458244e-23
   2.8917032e+01   2.4270166e-23
   2.8983715e+01   2.4083980e-23
   2.9050552e+01   2.3899669e-23
   2.9117543e+01   2.3717218e-23
   2.9184688e+01   2.3536610e-23
   2.9251988e+01   2.3357829e-23
   2.9319443e+01   2.3180858e-23
   2.9387054e+01   2.3005683e-23
   2.9454821e+01   2.2832286e-23
   2.9522744e+01   2.2660652e-23
   2.9590824e+01   2.2490766e-23
   2.9659060e+01   2.2322612e-23
   2.9727454e+01   2.2156175e-23
   2.9796006e+01   2.1991439e-23
   2.9864716e+01   2.1828389e-23
   2.9933584e+01   2.1667010e-23
   3.0002611e+01   2.1507288e-23
   3.0071797e+01   2.1349208e-23
   3.0141143e+01   2.1192753e-23
   3.0210649e+01   2.1037907e-23
   3.0280315e+01   2.0884653e-23
   3.0350142e+01   2.0732978e-23
   3.0420129e+01   2.0582867e-23
   3.0490278e+01   2.0434305e-23
   3.0560589e+01   2.0287279e-23
   3.0631062e+01   2.0141775e-23
   3.0701697e+01   1.9997777e-23
   3.0772496e+01   1.9855274e-23
   3.0843457e+01   1.9714250e-23
   3.0914583e+01   1.9574692e-23
   3.0985872e+01   1.9436587e-23
   3.1057326e+01   1.9299921e-23
   3.1128944e+01   1.9164680e-23
   3.1200728e+01   1.9030854e-23
   3.1272677e+01   1.8898429e-23
   3.1344792e+01   1.8767389e-23
   3.1417073e+01   1.8637719e-23
   3.1489521e+01   1.8509409e-23
   3.1562136e+01   1.8382462e-23
   3.1634919e+01   1.8256884e-23
   3.1707869e+01   1.8132660e-23
   3.1780988e+01   1.8009760e-23
   3.1854275e+01   1.7888154e-23
   3.1927731e+01   1.7767824e-23
   3.2001357e+01   1.7648765e-23
   3.2075152e+01   1.7530967e-23
   3.2149118e+01   1.7414418e-23
   3.2223254e+01   1.7299104e-23
   3.2297561e+01   1.7185012e-23
   3.2372039e+01   1.7072130e-23
   3.2446689e+01   1.6960447e-23
   3.2521512e+01   1.6849949e-23
   3.2596506e+01   1.6740627e-23
   3.2671674e+01   1.6632467e-23
   3.2747015e+01   1.6525459e-23
   3.2822530e+01   1.6419589e-23
   3.2898219e+01   1.6314848e-23
   3.2974083e+01   1.6211227e-23
   3.3050121e+01   1.6108717e-23
   3.3126335e+01   1.6007309e-23
   3.3202725e+01   1.5906993e-23
   3.3279290e+01   1.5807760e-23
   3.3356033e+01   1.5709599e-23
   3.3432952e+01   1.5612500e-23
   3.3510049e+01   1.5516454e-23
   3.3587323e+01   1.5421451e-23
   3.3664776e+01   1.5327481e-23
   3.3742407e+01   1.5234534e-23
   3.3820217e+01   1.5142601e-23
   3.3898207e+01   1.5051673e-23
   3.3976376e+01   1.4961739e-23
   3.4054726e+01   1.4872791e-23
   3.4133257e+01   1.4784819e-23
   3.4211968e+01   1.4697813e-23
   3.4290861e+01   1.4611765e-23
   3.4369936e+01   1.4526664e-23
   3.4449194e+01   1.4442503e-23
   3.4528634e+01   1.4359272e-23
   3.4608257e+01   1.4276961e-23
   3.4688064e+01   1.4195562e-23
   3.4768055e+01   1.4115066e-23
   3.4848230e+01   1.4035464e-23
   3.4928590e+01   1.3956747e-23
   3.5009136e+01   1.3878905e-23
   3.5089867e+01   1.3801931e-23
   3.5170785e+01   1.3725816e-23
   3.5251889e+01   1.3650550e-23
   3.5333180e+01   1.3576126e-23
   3.5414659e+01   1.3502535e-23
   3.5496325e+01   1.3429767e-23
   3.5578180e+01   1.3357815e-23
   3.5660224e+01   1.3286671e-23
   3.5742456e+01   1.3216326e-23
   3.5824879e+01   1.3146770e-23
   3.5907491e+01   1.3077998e-23
   3.5990294e+01   1.3009999e-23
   3.6073288e+01   1.2942768e-23
   3.6156473e+01   1.2876295e-23
   3.6239850e+01   1.2810570e-23
   3.6323420e+01   1.2745585e-23
   3.6407182e+01   1.2681332e-23
   3.6491137e+01   1.2617804e-23
   3.6575286e+01   1.2554994e-23
   3.6659629e+01   1.2492893e-23
   3.6744166e+01   1.2431493e-23
   3.6828898e+01   1.2370787e-23
   3.6913826e+01   1.2310767e-23
   3.6998950e+01   1.2251430e-23
   3.7084270e+01   1.2192771e-23
   3.7169786e+01   1.2134779e-23
   3.7255500e+01   1.2077446e-23
   3.7341412e+01   1.2020761e-23
   3.7427521e+01   1.1964719e-23
   3.7513829e+01   1.1909313e-23
   3.7600336e+01   1.1854536e-23
   3.7687043e+01   1.1800380e-23
   3.7773950e+01   1.1746840e-23
   3.7861057e+01   1.1693907e-23
   3.7948365e+01   1.1641576e-23
   3.8035874e+01   1.1589839e-23
   3.8123585e+01   1.1538689e-23
   3.8211498e+01   1.1488121e-23
   3.8299614e+01   1.1438128e-23
   3.8387933e+01   1.1388703e-23
   3.8476456e+01   1.1339839e-23
   3.8565183e+01   1.1291530e-23
   3.8654115e+01   1.1243770e-23
   3.8743251e+01   1.1196552e-23
   3.8832594e+01   1.1149871e-23
   3.8922142e+01   1.1103719e-23
   3.9011897e+01   1.1058092e-23
   3.9101858e+01   1.1012982e-23
   3.9192028e+01   1.0968384e-23
   3.9282405e+01   1.0924291e-23
   3.9372990e+01   1.0880699e-23
   3.9463785e+01   1.0837600e-23
   3.9554788e+01   1.0794990e-23
   3.9646002e+01   1.0752862e-23
   3.9737426e+01   1.0711210e-23
   3.9829061e+01   1.0670030e-23
   3.9920907e+01   1.0629315e-23
   4.0012965e+01   1.0589060e-23
   4.0105235e+01   1.0549259e-23
   4.0197718e+01   1.0509907e-23
   4.0290414e+01   1.0470999e-23
   4.0383324e+01   1.0432528e-23
   4.0476449e+01   1.0394490e-23
   4.0569788e+01   1.0356880e-23
   4.0663342e+01   1.0319692e-23
   4.0757112e+01   1.0282922e-23
   4.0851098e+01   1.0246563e-23
   4.0945301e+01   1.0210611e-23
   4.1039721e+01   1.0175061e-23
   4.1134359e+01   1.0139909e-23
   4.1229215e+01   1.0105148e-23
   4.1324290e+01   1.0070775e-23
   4.1419584e+01   1.0036784e-23
   4.1515098e+01   1.0003170e-23
   4.1610832e+01   9.9699299e-24
   4.1706787e+01   9.9370581e-24
   4.1802963e+01   9.9045510e-24
   4.1899361e+01   9.8724045e-24
   4.1995982e+01   9.8406131e-24
   4.2092825e+01   9.8091713e-24
   4.2189891e+01   9.7780746e-24
   4.2287181e+01   9.7473190e-24
   4.2384696e+01   9.7169001e-24
   4.2482435e+01   9.6868135e-24
   4.2580400e+01   9.6570550e-24
   4.2678591e+01   9.6276203e-24
   4.2777008e+01   9.5985052e-24
   4.2875652e+01   9.5697057e-24
   4.2974524e+01   9.5412177e-24
   4.3073623e+01   9.5130371e-24
   4.3172951e+01   9.4851600e-24
   4.3272508e+01   9.4575824e-24
   4.3372295e+01   9.4303005e-24
   4.3472312e+01   9.4033105e-24
   4.3572559e+01   9.3766085e-24
   4.3673038e+01   9.3501909e-24
   4.3773748e+01   9.3240539e-24
   4.3874691e+01   9.2981938e-24
   4.3975866e+01   9.2726071e-24
   4.4077275e+01   9.2472900e-24
   4.4178918e+01   9.2222391e-24
   4.4280795e+01   9.1974509e-24
   4.4382906e+01   9.1729219e-24
   4.4485254e+01   9.1486487e-24
   4.4587837e+01   9.1246278e-24
   4.4690657e+01   9.1008559e-24
   4.4793714e+01   9.0773298e-24
   4.4897009e+01   9.0540461e-24
   4.5000541e+01   9.0310016e-24
   4.5104313e+01   9.0081932e-24
   4.5208324e+01   8.9856176e-24
   4.5312575e+01   8.9632717e-24
   4.5417066e+01   8.9411525e-24
   4.5521798e+01   8.9192569e-24
   4.5626772e+01   8.8975819e-24
   4.5731987e+01   8.8761246e-24
   4.5837446e+01   8.8548819e-24
   4.5943147e+01   8.8338510e-24
   4.6049092e+01   8.8130291e-24
   4.6155282e+01   8.7924132e-24
   4.6261716e+01   8.7720007e-24
   4.6368396e+01   8.7517887e-24
   4.6475322e+01   8.7317745e-24
   4.6582494e+01   8.7119554e-24
   4.6689914e+01   8.6923288e-24
   4.6797581e+01   8.6728921e-24
   4.6905497e+01   8.6536426e-24
   4.7013661e+01   8.6345778e-24
   4.7122075e+01   8.6156952e-24
   4.7230739e+01   8.5969922e-24
   4.7339654e+01   8.5784665e-24
   4.7448819e+01   8.5601156e-24
   4.7558236e+01   8.5419370e-24
   4.7667906e+01   8.5239284e-24
   4.7777829e+01   8.5060875e-24
   4.7888005e+01   8.4884120e-24
   4.7998435e+01   8.4708995e-24
   4.8109120e+01   8.4535480e-24
   4.8220060e+01   8.4363551e-24
   4.8331255e+01   8.4193186e-24
   4.8442708e+01   8.4024364e-24
   4.8554417e+01   8.3857065e-24
   4.8666384e+01   8.3691266e-24
   4.8778609e+01   8.3526947e-24
   4.8891093e+01   8.3364088e-24
   4.9003836e+01   8.3202669e-24
   4.9116839e+01   8.3042670e-24
   4.9230103e+01   8.2884070e-24
   4.9343628e+01   8.2726852e-24
   4.9457415e+01   8.2570996e-24
   4.9571464e+01   8.2416482e-24
   4.9685776e+01   8.2263293e-24
   4.9800352e+01   8.2111411e-24
   4.9915192e+01   8.1960816e-24
   5.0030297e+01   8.1811493e-24
   5.0145667e+01   8.1663422e-24
   5.0261303e+01   8.1516586e-24
   5.0377206e+01   8.1370970e-24
   5.0493376e+01   8.1226555e-24
   5.0609814e+01   8.1083325e-24
   5.0726521e+01   8.0941265e-24
   5.0843497e+01   8.0800357e-24
   5.0960742e+01   8.0660586e-24
   5.1078258e+01   8.0521936e-24
   5.1196045e+01   8.0384392e-24
   5.1314103e+01   8.0247939e-24
   5.1432434e+01   8.0112562e-24
   5.1551038e+01   7.9978245e-24
   5.1669915e+01   7.9844974e-24
   5.1789066e+01   7.9712736e-24
   5.1908492e+01   7.9581515e-24
   5.2028193e+01   7.9451299e-24
   5.2148171e+01   7.9322072e-24
   5.2268425e+01   7.9193821e-24
   5.2388956e+01   7.9066534e-24
   5.2509766e+01   7.8940197e-24
   5.2630854e+01   7.8814797e-24
   5.2752221e+01   7.8690321e-24
   5.2873868e+01   7.8566757e-24
   5.2995795e+01   7.8444092e-24
   5.3118004e+01   7.8322313e-24
   5.3240495e+01   7.8201410e-24
   5.3363268e+01   7.8081370e-24
   5.3486324e+01   7.7962181e-24
   5.3609663e+01   7.7843832e-24
   5.3733288e+01   7.7726311e-24
   5.3857197e+01   7.7609608e-24
   5.3981392e+01   7.7493710e-24
   5.4105874e+01   7.7378608e-24
   5.4230642e+01   7.7264291e-24
   5.4355699e+01   7.7150747e-24
   5.4481043e+01   7.7037967e-24
   5.4606677e+01   7.6925941e-24
   5.4732600e+01   7.6814658e-24
   5.4858814e+01   7.6704108e-24
   5.4985319e+01   7.6594282e-24
   5.5112116e+01   7.6485169e-24
   5.5239205e+01   7.6376761e-24
   5.5366587e+01   7.6269048e-24
   5.5494262e+01   7.6162021e-24
   5.5622233e+01   7.6055671e-24
   5.5750498e+01   7.5949988e-24
   5.5879059e+01   7.5844964e-24
   5.6007916e+01   7.5740590e-24
   5.6137071e+01   7.5636858e-24
   5.6266524e+01   7.5533759e-24
   5.6396275e+01   7.5431286e-24
   5.6526325e+01   7.5329428e-24
   5.6656675e+01   7.5228180e-24
   5.6787326e+01   7.5127532e-24
   5.6918278e+01   7.5027478e-24
   5.7049532e+01   7.4928008e-24
   5.7181088e+01   7.4829117e-24
   5.7312948e+01   7.4730795e-24
   5.7445113e+01   7.4633037e-24
   5.7577581e+01   7.4535834e-24
   5.7710356e+01   7.4439179e-24
   5.7843436e+01   7.4343066e-24
   5.7976824e+01   7.4247488e-24
   5.8110519e+01   7.4152437e-24
   5.8244522e+01   7.4057908e-24
   5.8378834e+01   7.3963892e-24
   5.8513456e+01   7.3870385e-24
   5.8648389e+01   7.3777380e-24
   5.8783632e+01   7.3684869e-24
   5.8919188e+01   7.3592848e-24
   5.9055056e+01   7.3501309e-24
   5.9191237e+01   7.3410248e-24
   5.9327733e+01   7.3319657e-24
   5.9464543e+01   7.3229532e-24
   5.9601669e+01   7.3139866e-24
   5.9739111e+01   7.3050653e-24
   5.9876870e+01   7.2961889e-24
   6.0014946e+01   7.2873567e-24
   6.0153341e+01   7.2785683e-24
   6.0292055e+01   7.2698230e-24
   6.0431089e+01   7.2611204e-24
   6.0570443e+01   7.2524600e-24
   6.0710119e+01   7.2438412e-24
   6.0850117e+01   7.2352635e-24
   6.0990438e+01   7.2267265e-24
   6.1131083e+01   7.2182297e-24
   6.1272051e+01   7.2097725e-24
   6.1413345e+01   7.2013545e-24
   6.1554965e+01   7.1929753e-24
   6.1696911e+01   7.1846344e-24
   6.1839185e+01   7.1763314e-24
   6.1981786e+01   7.1680657e-24
   6.2124717e+01   7.1598370e-24
   6.2267977e+01   7.1516448e-24
   6.2411567e+01   7.1434888e-24
   6.2555489e+01   7.1353684e-24
   6.2699742e+01   7.1272834e-24
   6.2844328e+01   7.1192332e-24
   6.2989248e+01   7.1112175e-24
   6.3134501e+01   7.1032359e-24
   6.3280090e+01   7.0952880e-24
   6.3426014e+01   7.0873735e-24
   6.3572275e+01   7.0794919e-24
   6.3718874e+01   7.0716429e-24
   6.3865810e+01   7.0638262e-24
   6.4013085e+01   7.0560413e-24
   6.4160699e+01   7.0482880e-24
   6.4308655e+01   7.0405658e-24
   6.4456951e+01   7.0328745e-24
   6.4605589e+01   7.0252136e-24
   6.4754570e+01   7.0175830e-24
   6.4903894e+01   7.0099822e-24
   6.5053563e+01   7.0024109e-24
   6.5203577e+01   6.9948689e-24
   6.5353937e+01   6.9873557e-24
   6.5504644e+01   6.9798712e-24
   6.5655698e+01   6.9724149e-24
   6.5807101e+01   6.9649867e-24
   6.5958852e+01   6.9575862e-24
   6.6110954e+01   6.9502131e-24
   6.6263406e+01   6.9428671e-24
   6.6416210e+01   6.9355481e-24
   6.6569367e+01   6.9282556e-24
   6.6722876e+01   6.9209894e-24
   6.6876740e+01   6.9137493e-24
   6.7030958e+01   6.9065350e-24
   6.7185532e+01   6.8993462e-24
   6.7340462e+01   6.8921827e-24
   6.7495750e+01   6.8850443e-24
   6.7651395e+01   6.8779306e-24
   6.7807400e+01   6.8708415e-24
   6.7963764e+01   6.8637767e-24
   6.8120489e+01   6.8567359e-24
   6.8277576e+01   6.8497191e-24
   6.8435024e+01   6.8427258e-24
   6.8592836e+01   6.8357559e-24
   6.8751012e+01   6.8288092e-24
   6.8909552e+01   6.8218855e-24
   6.9068458e+01   6.8149845e-24
   6.9227730e+01   6.8081060e-24
   6.9387370e+01   6.8012498e-24
   6.9547378e+01   6.7944158e-24
   6.9707755e+01   6.7876037e-24
   6.9868501e+01   6.7808133e-24
   7.0029619e+01   6.7740444e-24
   7.0191107e+01   6.7672968e-24
   7.0352969e+01   6.7605704e-24
   7.0515203e+01   6.7538650e-24
   7.0677812e+01   6.7471803e-24
   7.0840795e+01   6.7405162e-24
   7.1004155e+01   6.7338725e-24
   7.1167891e+01   6.7272491e-24
   7.1332004e+01   6.7206457e-24
   7.1496497e+01   6.7140623e-24
   7.1661368e+01   6.7074985e-24
   7.1826620e+01   6.7009543e-24
   7.1992252e+01   6.6944296e-24
   7.2158267e+01   6.6879240e-24
   7.2324665e+01   6.6814376e-24
   7.2491446e+01   6.6749700e-24
   7.2658612e+01   6.6685213e-24
   7.2826163e+01   6.6620911e-24
   7.2994101e+01   6.6556795e-24
   7.3162426e+01   6.6492862e-24
   7.3331139e+01   6.6429110e-24
   7.3500241e+01   6.6365539e-24
   7.3669733e+01   6.6302147e-24
   7.3839616e+01   6.6238933e-24
   7.4009891e+01   6.6175895e-24
   7.4180558e+01   6.6113032e-24
   7.4351619e+01   6.6050343e-24
   7.4523074e+01   6.5987826e-24
   7.4694925e+01   6.5925480e-24
   7.4867172e+01   6.5863304e-24
   7.5039817e+01   6.5801297e-24
   7.5212859e+01   6.5739457e-24
   7.5386300e+01   6.5677783e-24
   7.5560142e+01   6.5616274e-24
   7.5734384e+01   6.5554929e-24
   7.5909028e+01   6.5493747e-24
   7.6084075e+01   6.5432727e-24
   7.6259525e+01   6.5371866e-24
   7.6435380e+01   6.5311166e-24
   7.6611641e+01   6.5250623e-24
   7.6788308e+01   6.5190238e-24
   7.6965382e+01   6.5130008e-24
   7.7142865e+01   6.5069934e-24
   7.7320757e+01   6.5010014e-24
   7.7499060e+01   6.4950247e-24
   7.7677773e+01   6.4890633e-24
   7.7856898e+01   6.4831169e-24
   7.8036437e+01   6.4771856e-24
   7.8216390e+01   6.4712691e-24
   7.8396757e+01   6.4653675e-24
   7.8577541e+01   6.4594807e-24
   7.8758741e+01   6.4536085e-24
   7.8940359e+01   6.4477508e-24
   7.9122397e+01   6.4419077e-24
   7.9304853e+01   6.4360789e-24
   7.9487731e+01   6.4302644e-24
   7.9671030e+01   6.4244641e-24
   7.9854752e+01   6.4186780e-24
   8.0038898e+01   6.4129059e-24
   8.0223468e+01   6.4071478e-24
   8.0408464e+01   6.4014035e-24
   8.0593887e+01   6.3956731e-24
   8.0779737e+01   6.3899564e-24
   8.0966016e+01   6.3842534e-24
   8.1152724e+01   6.3785640e-24
   8.1339863e+01   6.3728881e-24
   8.1527433e+01   6.3672256e-24
   8.1715436e+01   6.3615765e-24
   8.1903872e+01   6.3559407e-24
   8.2092743e+01   6.3503181e-24
   8.2282050e+01   6.3447087e-24
   8.2471793e+01   6.3391123e-24
   8.2661973e+01   6.3335290e-24
   8.2852592e+01   6.3279587e-24
   8.3043651e+01   6.3224012e-24
   8.3235150e+01   6.3168566e-24
   8.3427091e+01   6.3113248e-24
   8.3619475e+01   6.3058056e-24
   8.3812302e+01   6.3002991e-24
   8.4005574e+01   6.2948052e-24
   8.4199291e+01   6.2893238e-24
   8.4393456e+01   6.2838549e-24
   8.4588067e+01   6.2783984e-24
   8.4783128e+01   6.2729543e-24
   8.4978639e+01   6.2675224e-24
   8.5174600e+01   6.2621028e-24
   8.5371013e+01   6.2566954e-24
   8.5567880e+01   6.2513001e-24
   8.5765200e+01   6.2459169e-24
   8.5962975e+01   6.2405458e-24
   8.6161206e+01   6.2351866e-24
   8.6359895e+01   6.2298393e-24
   8.6559041e+01   6.2245040e-24
   8.6758647e+01   6.2191804e-24
   8.6958713e+01   6.2138687e-24
   8.7159241e+01   6.2085686e-24
   8.7360231e+01   6.2032803e-24
   8.7561684e+01   6.1980036e-24
   8.7763602e+01   6.1927385e-24
   8.7965985e+01   6.1874849e-24
   8.8168836e+01   6.1822429e-24
   8.8372154e+01   6.1770123e-24
   8.8575940e+01   6.1717931e-24
   8.8780197e+01   6.1665853e-24
   8.8984925e+01   6.1613888e-24
   8.9190125e+01   6.1562037e-24
   8.9395798e+01   6.1510297e-24
   8.9601945e+01   6.1458670e-24
   8.9808568e+01   6.1407155e-24
   9.0015667e+01   6.1355751e-24
   9.0223244e+01   6.1304458e-24
   9.0431300e+01   6.1253275e-24
   9.0639835e+01   6.1202203e-24
   9.0848851e+01   6.1151240e-24
   9.1058349e+01   6.1100387e-24
   9.1268331e+01   6.1049642e-24
   9.1478796e+01   6.0999007e-24
   9.1689747e+01   6.0948480e-24
   9.1901184e+01   6.0898061e-24
   9.2113109e+01   6.0847750e-24
   9.2325522e+01   6.0797546e-24
   9.2538426e+01   6.0747449e-24
   9.2751820e+01   6.0697458e-24
   9.2965707e+01   6.0647574e-24
   9.3180086e+01   6.0597796e-24
   9.3394960e+01   6.0548124e-24
   9.3610330e+01   6.0498558e-24
   9.3826196e+01   6.0449096e-24
   9.4042560e+01   6.0399739e-24
   9.4259423e+01   6.0350487e-24
   9.4476786e+01   6.0301339e-24
   9.4694650e+01   6.0252295e-24
   9.4913016e+01   6.0203355e-24
   9.5131886e+01   6.0154518e-24
   9.5351261e+01   6.0105784e-24
   9.5571142e+01   6.0057153e-24
   9.5791530e+01   6.0008624e-24
   9.6012426e+01   5.9960198e-24
   9.6233831e+01   5.9911874e-24
   9.6455747e+01   5.9863651e-24
   9.6678175e+01   5.9815531e-24
   9.6901115e+01   5.9767511e-24
   9.7124570e+01   5.9719593e-24
   9.7348540e+01   5.9671775e-24
   9.7573027e+01   5.9624058e-24
   9.7798031e+01   5.9576441e-24
   9.8023554e+01   5.9528924e-24
   9.8249597e+01   5.9481507e-24
   9.8476161e+01   5.9434190e-24
   9.8703248e+01   5.9386972e-24
   9.8930858e+01   5.9339853e-24
   9.9158994e+01   5.9292834e-24
   9.9387655e+01   5.9245913e-24
   9.9616844e+01   5.9199090e-24
   9.9846561e+01   5.9152366e-24
   1.0007681e+02   5.9105740e-24
   1.0030759e+02   5.9059212e-24
   1.0053890e+02   5.9012782e-24
   1.0077074e+02   5.8966449e-24
   1.0100312e+02   5.8920213e-24
   1.0123603e+02   5.8874075e-24
   1.0146948e+02   5.8828034e-24
   1.0170347e+02   5.8782089e-24
   1.0193800e+02   5.8736241e-24
   1.0217307e+02   5.8690489e-24
   1.0240868e+02   5.8644834e-24
   1.0264484e+02   5.8599274e-24
   1.0288154e+02   5.8553811e-24
   1.0311878e+02   5.8508443e-24
   1.0335658e+02   5.8463171e-24
   1.0359492e+02   5.8417994e-24
   1.0383381e+02   5.8372912e-24
   1.0407325e+02   5.8327925e-24
   1.0431324e+02   5.8283034e-24
   1.0455379e+02   5.8238237e-24
   1.0479489e+02   5.8193534e-24
   1.0503655e+02   5.8148926e-24
   1.0527876e+02   5.8104412e-24
   1.0552154e+02   5.8059993e-24
   1.0576487e+02   5.8015667e-24
   1.0600877e+02   5.7971435e-24
   1.0625322e+02   5.7927297e-24
   1.0649824e+02   5.7883253e-24
   1.0674383e+02   5.7839302e-24
   1.0698998e+02   5.7795444e-24
   1.0723670e+02   5.7751679e-24
   1.0748399e+02   5.7708007e-24
   1.0773185e+02   5.7664429e-24
   1.0798028e+02   5.7620943e-24
   1.0822928e+02   5.7577549e-24
   1.0847886e+02   5.7534249e-24
   1.0872901e+02   5.7491040e-24
   1.0897974e+02   5.7447924e-24
   1.0923105e+02   5.7404900e-24
   1.0948294e+02   5.7361968e-24
   1.0973541e+02   5.7319128e-24
   1.0998846e+02   5.7276380e-24
   1.1024209e+02   5.7233724e-24
   1.1049631e+02   5.7191159e-24
   1.1075112e+02   5.7148686e-24
   1.1100651e+02   5.7106304e-24
   1.1126249e+02   5.7064013e-24
   1.1151906e+02   5.7021814e-24
   1.1177623e+02   5.6979705e-24
   1.1203398e+02   5.6937688e-24
   1.1229234e+02   5.6895762e-24
   1.1255128e+02   5.6853926e-24
   1.1281083e+02   5.6812181e-24
   1.1307097e+02   5.6770527e-24
   1.1333171e+02   5.6728963e-24
   1.1359306e+02   5.6687490e-24
   1.1385500e+02   5.6646107e-24
   1.1411755e+02   5.6604815e-24
   1.1438071e+02   5.6563612e-24
   1.1464447e+02   5.6522500e-24
   1.1490884e+02   5.6481477e-24
   1.1517382e+02   5.6440545e-24
   1.1543942e+02   5.6399703e-24
   1.1570562e+02   5.6358950e-24
   1.1597244e+02   5.6318287e-24
   1.1623987e+02   5.6277714e-24
   1.1650792e+02   5.6237230e-24
   1.1677659e+02   5.6196836e-24
   1.1704588e+02   5.6156531e-24
   1.1731579e+02   5.6116315e-24
   1.1758632e+02   5.6076189e-24
   1.1785747e+02   5.6036152e-24
   1.1812925e+02   5.5996205e-24
   1.1840166e+02   5.5956346e-24
   1.1867469e+02   5.5916577e-24
   1.1894836e+02   5.5876896e-24
   1.1922265e+02   5.5837304e-24
   1.1949758e+02   5.5797802e-24
   1.1977314e+02   5.5758388e-24
   1.2004934e+02   5.5719063e-24
   1.2032618e+02   5.5679826e-24
   1.2060365e+02   5.5640678e-24
   1.2088176e+02   5.5601619e-24
   1.2116052e+02   5.5562649e-24
   1.2143991e+02   5.5523766e-24
   1.2171996e+02   5.5484973e-24
   1.2200064e+02   5.5446268e-24
   1.2228198e+02   5.5407651e-24
   1.2256396e+02   5.5369122e-24
   1.2284659e+02   5.5330682e-24
   1.2312988e+02   5.5292330e-24
   1.2341382e+02   5.5254066e-24
   1.2369841e+02   5.5215891e-24
   1.2398366e+02   5.5177804e-24
   1.2426957e+02   5.5139804e-24
   1.2455613e+02   5.5101893e-24
   1.2484336e+02   5.5064070e-24
   1.2513125e+02   5.5026334e-24
   1.2541981e+02   5.4988687e-24
   1.2570902e+02   5.4951128e-24
   1.2599891e+02   5.4913656e-24
   1.2628946e+02   5.4876273e-24
   1.2658069e+02   5.4838977e-24
   1.2687259e+02   5.4801769e-24
   1.2716515e+02   5.4764649e-24
   1.2745840e+02   5.4727617e-24
   1.2775232e+02   5.4690672e-24
   1.2804692e+02   5.4653816e-24
   1.2834219e+02   5.4617046e-24
   1.2863815e+02   5.4580365e-24
   1.2893479e+02   5.4543771e-24
   1.2923212e+02   5.4507265e-24
   1.2953013e+02   5.4470847e-24
   1.2982882e+02   5.4434516e-24
   1.3012821e+02   5.4398273e-24
   1.3042829e+02   5.4362117e-24
   1.3072906e+02   5.4326049e-24
   1.3103052e+02   5.4290068e-24
   1.3133268e+02   5.4254175e-24
   1.3163553e+02   5.4218370e-24
   1.3193908e+02   5.4182652e-24
   1.3224333e+02   5.4147022e-24
   1.3254829e+02   5.4111479e-24
   1.3285395e+02   5.4076024e-24
   1.3316031e+02   5.4040656e-24
   1.3346738e+02   5.4005376e-24
   1.3377515e+02   5.3970183e-24
   1.3408364e+02   5.3935078e-24
   1.3439284e+02   5.3900060e-24
   1.3470275e+02   5.3865130e-24
   1.3501337e+02   5.3830287e-24
   1.3532472e+02   5.3795532e-24
   1.3563678e+02   5.3760864e-24
   1.3594956e+02   5.3726284e-24
   1.3626306e+02   5.3691791e-24
   1.3657728e+02   5.3657386e-24
   1.3689223e+02   5.3623069e-24
   1.3720790e+02   5.3588839e-24
   1.3752431e+02   5.3554696e-24
   1.3784144e+02   5.3520641e-24
   1.3815930e+02   5.3486674e-24
   1.3847790e+02   5.3452794e-24
   1.3879723e+02   5.3419002e-24
   1.3911730e+02   5.3385297e-24
   1.3943810e+02   5.3351681e-24
   1.3975965e+02   5.3318151e-24
   1.4008193e+02   5.3284710e-24
   1.4040496e+02   5.3251356e-24
   1.4072874e+02   5.3218089e-24
   1.4105326e+02   5.3184911e-24
   1.4137853e+02   5.3151820e-24
   1.4170455e+02   5.3118817e-24
   1.4203132e+02   5.3085902e-24
   1.4235885e+02   5.3053074e-24
   1.4268713e+02   5.3020335e-24
   1.4301617e+02   5.2987683e-24
   1.4334596e+02   5.2955119e-24
   1.4367652e+02   5.2922643e-24
   1.4400784e+02   5.2890255e-24
   1.4433992e+02   5.2857954e-24
   1.4467277e+02   5.2825742e-24
   1.4500639e+02   5.2793618e-24
   1.4534077e+02   5.2761582e-24
   1.4567593e+02   5.2729634e-24
   1.4601186e+02   5.2697774e-24
   1.4634856e+02   5.2666002e-24
   1.4668604e+02   5.2634318e-24
   1.4702430e+02   5.2602723e-24
   1.4736334e+02   5.2571216e-24
   1.4770316e+02   5.2539797e-24
   1.4804377e+02   5.2508466e-24
   1.4838516e+02   5.2477224e-24
   1.4872734e+02   5.2446070e-24
   1.4907030e+02   5.2415005e-24
   1.4941406e+02   5.2384028e-24
   1.4975861e+02   5.2353140e-24
   1.5010395e+02   5.2322340e-24
   1.5045009e+02   5.2291628e-24
   1.5079703e+02   5.2261006e-24
   1.5114477e+02   5.2230472e-24
   1.5149331e+02   5.2200027e-24
   1.5184266e+02   5.2169671e-24
   1.5219281e+02   5.2139403e-24
   1.5254377e+02   5.2109225e-24
   1.5289553e+02   5.2079135e-24
   1.5324811e+02   5.2049134e-24
   1.5360150e+02   5.2019223e-24
   1.5395571e+02   5.1989400e-24
   1.5431073e+02   5.1959667e-24
   1.5466657e+02   5.1930023e-24
   1.5502324e+02   5.1900468e-24
   1.5538072e+02   5.1871002e-24
   1.5573903e+02   5.1841626e-24
   1.5609817e+02   5.1812339e-24
   1.5645813e+02   5.1783142e-24
   1.5681892e+02   5.1754034e-24
   1.5718055e+02   5.1725016e-24
   1.5754301e+02   5.1696088e-24
   1.5790630e+02   5.1667249e-24
   1.5827044e+02   5.1638500e-24
   1.5863541e+02   5.1609841e-24
   1.5900122e+02   5.1581272e-24
   1.5936788e+02   5.1552793e-24
   1.5973539e+02   5.1524404e-24
   1.6010374e+02   5.1496105e-24
   1.6047294e+02   5.1467896e-24
   1.6084299e+02   5.1439778e-24
   1.6121389e+02   5.1411750e-24
   1.6158565e+02   5.1383812e-24
   1.6195827e+02   5.1355965e-24
   1.6233175e+02   5.1328208e-24
   1.6270609e+02   5.1300542e-24
   1.6308129e+02   5.1272967e-24
   1.6345736e+02   5.1245482e-24
   1.6383429e+02   5.1218088e-24
   1.6421209e+02   5.1190786e-24
   1.6459077e+02   5.1163574e-24
   1.6497031e+02   5.1136453e-24
   1.6535074e+02   5.1109424e-24
   1.6573204e+02   5.1082485e-24
   1.6611422e+02   5.1055638e-24
   1.6649728e+02   5.1028883e-24
   1.6688122e+02   5.1002219e-24
   1.6726605e+02   5.0975646e-24
   1.6765177e+02   5.0949165e-24
   1.6803837e+02   5.0922776e-24
   1.6842587e+02   5.0896479e-24
   1.6881426e+02   5.0870274e-24
   1.6920355e+02   5.0844160e-24
   1.6959373e+02   5.0818139e-24
   1.6998482e+02   5.0792210e-24
   1.7037681e+02   5.0766373e-24
   1.7076970e+02   5.0740629e-24
   1.7116349e+02   5.0714977e-24
   1.7155820e+02   5.0689418e-24
   1.7195381e+02   5.0663951e-24
   1.7235034e+02   5.0638577e-24
   1.7274778e+02   5.0613296e-24
   1.7314614e+02   5.0588108e-24
   1.7354541e+02   5.0563013e-24
   1.7394561e+02   5.0538011e-24
   1.7434673e+02   5.0513102e-24
   1.7474877e+02   5.0488287e-24
   1.7515175e+02   5.0463565e-24
   1.7555565e+02   5.0438936e-24
   1.7596048e+02   5.0414402e-24
   1.7636625e+02   5.0389961e-24
   1.7677295e+02   5.0365614e-24
   1.7718059e+02   5.0341360e-24
   1.7758917e+02   5.0317201e-24
   1.7799869e+02   5.0293137e-24
   1.7840916e+02   5.0269166e-24
   1.7882057e+02   5.0245290e-24
   1.7923293e+02   5.0221508e-24
   1.7964624e+02   5.0197821e-24
   1.8006051e+02   5.0174229e-24
   1.8047573e+02   5.0150731e-24
   1.8089191e+02   5.0127329e-24
   1.8130905e+02   5.0104021e-24
   1.8172715e+02   5.0080809e-24
   1.8214621e+02   5.0057692e-24
   1.8256624e+02   5.0034671e-24
   1.8298724e+02   5.0011745e-24
   1.8340921e+02   4.9988915e-24
   1.8383215e+02   4.9966180e-24
   1.8425607e+02   4.9943542e-24
   1.8468097e+02   4.9920999e-24
   1.8510684e+02   4.9898553e-24
   1.8553370e+02   4.9876203e-24
   1.8596154e+02   4.9853949e-24
   1.8639037e+02   4.9831792e-24
   1.8682019e+02   4.9809732e-24
   1.8725100e+02   4.9787768e-24
   1.8768280e+02   4.9765902e-24
   1.8811560e+02   4.9744132e-24
   1.8854939e+02   4.9722459e-24
   1.8898419e+02   4.9700884e-24
   1.8941999e+02   4.9679407e-24
   1.8985679e+02   4.9658026e-24
   1.9029460e+02   4.9636744e-24
   1.9073343e+02   4.9615560e-24
   1.9117326e+02   4.9594473e-24
   1.9161411e+02   4.9573485e-24
   1.9205597e+02   4.9552594e-24
   1.9249885e+02   4.9531803e-24
   1.9294276e+02   4.9511110e-24
   1.9338768e+02   4.9490515e-24
   1.9383364e+02   4.9470019e-24
   1.9428062e+02   4.9449623e-24
   1.9472863e+02   4.9429325e-24
   1.9517768e+02   4.9409127e-24
   1.9562776e+02   4.9389028e-24
   1.9607888e+02   4.9369028e-24
   1.9653104e+02   4.9349129e-24
   1.9698424e+02   4.9329329e-24
   1.9743849e+02   4.9309629e-24
   1.9789378e+02   4.9290030e-24
   1.9835012e+02   4.9270530e-24
   1.9880752e+02   4.9251131e-24
   1.9926597e+02   4.9231833e-24
   1.9972548e+02   4.9212636e-24
   2.0018605e+02   4.9193539e-24
   2.0064768e+02   4.9174544e-24
   2.0111038e+02   4.9155649e-24
   2.0157414e+02   4.9136857e-24
   2.0203897e+02   4.9118165e-24
   2.0250487e+02   4.9099576e-24
   2.0297185e+02   4.9081088e-24
   2.0343991e+02   4.9062702e-24
   2.0390904e+02   4.9044419e-24
   2.0437926e+02   4.9026238e-24
   2.0485056e+02   4.9008159e-24
   2.0532294e+02   4.8990183e-24
   2.0579642e+02   4.8972310e-24
   2.0627099e+02   4.8954540e-24
   2.0674665e+02   4.8936874e-24
   2.0722341e+02   4.8919310e-24
   2.0770127e+02   4.8901851e-24
   2.0818023e+02   4.8884494e-24
   2.0866029e+02   4.8867242e-24
   2.0914147e+02   4.8850094e-24
   2.0962375e+02   4.8833050e-24
   2.1010714e+02   4.8816111e-24
   2.1059165e+02   4.8799276e-24
   2.1107728e+02   4.8782546e-24
   2.1156402e+02   4.8765921e-24
   2.1205189e+02   4.8749401e-24
   2.1254088e+02   4.8732986e-24
   2.1303100e+02   4.8716677e-24
   2.1352226e+02   4.8700473e-24
   2.1401464e+02   4.8684375e-24
   2.1450816e+02   4.8668384e-24
   2.1500282e+02   4.8652498e-24
   2.1549861e+02   4.8636719e-24
   2.1599556e+02   4.8621047e-24
   2.1649364e+02   4.8605482e-24
   2.1699288e+02   4.8590023e-24
   2.1749327e+02   4.8574672e-24
   2.1799481e+02   4.8559428e-24
   2.1849750e+02   4.8544291e-24
   2.1900136e+02   4.8529262e-24
   2.1950638e+02   4.8514342e-24
   2.2001256e+02   4.8499529e-24
   2.2051991e+02   4.8484825e-24
   2.2102844e+02   4.8470229e-24
   2.2153813e+02   4.8455742e-24
   2.2204900e+02   4.8441364e-24
   2.2256104e+02   4.8427096e-24
   2.2307427e+02   4.8412936e-24
   2.2358868e+02   4.8398886e-24
   2.2410428e+02   4.8384946e-24
   2.2462107e+02   4.8371116e-24
   2.2513904e+02   4.8357396e-24
   2.2565822e+02   4.8343786e-24
   2.2617859e+02   4.8330287e-24
   2.2670016e+02   4.8316899e-24
   2.2722293e+02   4.8303621e-24
   2.2774691e+02   4.8290455e-24
   2.2827209e+02   4.8277401e-24
   2.2879849e+02   4.8264458e-24
   2.2932610e+02   4.8251626e-24
   2.2985493e+02   4.8238907e-24
   2.3038497e+02   4.8226301e-24
   2.3091624e+02   4.8213806e-24
   2.3144874e+02   4.8201425e-24
   2.3198246e+02   4.8189156e-24
   2.3251741e+02   4.8177001e-24
   2.3305360e+02   4.8164959e-24
   2.3359102e+02   4.8153030e-24
   2.3412969e+02   4.8141216e-24
   2.3466959e+02   4.8129515e-24
   2.3521074e+02   4.8117929e-24
   2.3575314e+02   4.8106457e-24
   2.3629679e+02   4.8095100e-24
   2.3684169e+02   4.8083858e-24
   2.3738785e+02   4.8072731e-24
   2.3793527e+02   4.8061720e-24
   2.3848395e+02   4.8050824e-24
   2.3903389e+02   4.8040044e-24
   2.3958511e+02   4.8029381e-24
   2.4013759e+02   4.8018833e-24
   2.4069135e+02   4.8008403e-24
   2.4124639e+02   4.7998089e-24
   2.4180270e+02   4.7987892e-24
   2.4236030e+02   4.7977813e-24
   2.4291919e+02   4.7967851e-24
   2.4347936e+02   4.7958006e-24
   2.4404083e+02   4.7948280e-24
   2.4460359e+02   4.7938673e-24
   2.4516764e+02   4.7929183e-24
   2.4573300e+02   4.7919813e-24
   2.4629967e+02   4.7910561e-24
   2.4686763e+02   4.7901429e-24
   2.4743691e+02   4.7892416e-24
   2.4800750e+02   4.7883523e-24
   2.4857941e+02   4.7874751e-24
   2.4915264e+02   4.7866098e-24
   2.4972719e+02   4.7857566e-24
   2.5030306e+02   4.7849155e-24
   2.5088026e+02   4.7840864e-24
   2.5145879e+02   4.7832695e-24
   2.5203866e+02   4.7824648e-24
   2.5261986e+02   4.7816722e-24
   2.5320240e+02   4.7808919e-24
   2.5378629e+02   4.7801237e-24
   2.5437152e+02   4.7793679e-24
   2.5495811e+02   4.7786243e-24
   2.5554604e+02   4.7778930e-24
   2.5613533e+02   4.7771741e-24
   2.5672598e+02   4.7764675e-24
   2.5731799e+02   4.7757734e-24
   2.5791137e+02   4.7750916e-24
   2.5850612e+02   4.7744223e-24
   2.5910223e+02   4.7737655e-24
   2.5969973e+02   4.7731211e-24
   2.6029859e+02   4.7724893e-24
   2.6089885e+02   4.7718701e-24
   2.6150048e+02   4.7712634e-24
   2.6210350e+02   4.7706693e-24
   2.6270792e+02   4.7700879e-24
   2.6331372e+02   4.7695191e-24
   2.6392092e+02   4.7689630e-24
   2.6452953e+02   4.7684197e-24
   2.6513954e+02   4.7678891e-24
   2.6575095e+02   4.7673712e-24
   2.6636377e+02   4.7668662e-24
   2.6697801e+02   4.7663740e-24
   2.6759366e+02   4.7658947e-24
   2.6821074e+02   4.7654282e-24
   2.6882923e+02   4.7649747e-24
   2.6944915e+02   4.7645341e-24
   2.7007051e+02   4.7641065e-24
   2.7069329e+02   4.7636919e-24
   2.7131751e+02   4.7632903e-24
   2.7194317e+02   4.7629018e-24
   2.7257028e+02   4.7625264e-24
   2.7319882e+02   4.7621641e-24
   2.7382882e+02   4.7618150e-24
   2.7446027e+02   4.7614790e-24
   2.7509318e+02   4.7611563e-24
   2.7572755e+02   4.7608468e-24
   2.7636338e+02   4.7605505e-24
   2.7700067e+02   4.7602676e-24
   2.7763944e+02   4.7599980e-24
   2.7827968e+02   4.7597418e-24
   2.7892139e+02   4.7594989e-24
   2.7956459e+02   4.7592695e-24
   2.8020927e+02   4.7590535e-24
   2.8085543e+02   4.7588510e-24
   2.8150309e+02   4.7586620e-24
   2.8215223e+02   4.7584866e-24
   2.8280288e+02   4.7583247e-24
   2.8345503e+02   4.7581765e-24
   2.8410868e+02   4.7580419e-24
   2.8476383e+02   4.7579209e-24
   2.8542050e+02   4.7578137e-24
   2.8607868e+02   4.7577202e-24
   2.8673838e+02   4.7576404e-24
   2.8739960e+02   4.7575745e-24
   2.8806235e+02   4.7575224e-24
   2.8872662e+02   4.7574841e-24
   2.8939243e+02   4.7574597e-24
   2.9005977e+02   4.7574493e-24
   2.9072865e+02   4.7574528e-24
   2.9139907e+02   4.7574703e-24
   2.9207104e+02   4.7575018e-24
   2.9274456e+02   4.7575474e-24
   2.9341963e+02   4.7576070e-24
   2.9409626e+02   4.7576808e-24
   2.9477444e+02   4.7577687e-24
   2.9545420e+02   4.7578708e-24
   2.9613552e+02   4.7579872e-24
   2.9681841e+02   4.7581178e-24
   2.9750287e+02   4.7582626e-24
   2.9818892e+02   4.7584218e-24
   2.9887654e+02   4.7585953e-24
   2.9956575e+02   4.7587832e-24
   3.0025656e+02   4.7589856e-24
   3.0094895e+02   4.7592024e-24
   3.0164294e+02   4.7594336e-24
   3.0233853e+02   4.7596794e-24
   3.0303573e+02   4.7599398e-24
   3.0373453e+02   4.7602147e-24
   3.0443494e+02   4.7605043e-24
   3.0513697e+02   4.7608085e-24
   3.0584062e+02   4.7611274e-24
   3.0654589e+02   4.7614610e-24
   3.0725279e+02   4.7618094e-24
   3.0796131e+02   4.7621726e-24
   3.0867148e+02   4.7625506e-24
   3.0938327e+02   4.7629435e-24
   3.1009672e+02   4.7633512e-24
   3.1081180e+02   4.7637740e-24
   3.1152853e+02   4.7642116e-24
   3.1224692e+02   4.7646643e-24
   3.1296697e+02   4.7651321e-24
   3.1368867e+02   4.7656149e-24
   3.1441204e+02   4.7661128e-24
   3.1513708e+02   4.7666259e-24
   3.1586378e+02   4.7671541e-24
   3.1659217e+02   4.7676976e-24
   3.1732223e+02   4.7682563e-24
   3.1805398e+02   4.7688304e-24
   3.1878741e+02   4.7694197e-24
   3.1952254e+02   4.7700244e-24
   3.2025936e+02   4.7706446e-24
   3.2099788e+02   4.7712801e-24
   3.2173811e+02   4.7719312e-24
   3.2248004e+02   4.7725977e-24
   3.2322368e+02   4.7732798e-24
   3.2396903e+02   4.7739775e-24
   3.2471611e+02   4.7746908e-24
   3.2546491e+02   4.7754198e-24
   3.2621543e+02   4.7761645e-24
   3.2696769e+02   4.7769249e-24
   3.2772168e+02   4.7777010e-24
   3.2847741e+02   4.7784930e-24
   3.2923488e+02   4.7793008e-24
   3.2999410e+02   4.7801246e-24
   3.3075506e+02   4.7809642e-24
   3.3151779e+02   4.7818198e-24
   3.3228227e+02   4.7826914e-24
   3.3304852e+02   4.7835790e-24
   3.3381653e+02   4.7844828e-24
   3.3458631e+02   4.7854026e-24
   3.3535787e+02   4.7863386e-24
   3.3613121e+02   4.7872908e-24
   3.3690633e+02   4.7882592e-24
   3.3768324e+02   4.7892438e-24
   3.3846194e+02   4.7902448e-24
   3.3924243e+02   4.7912621e-24
   3.4002473e+02   4.7922959e-24
   3.4080883e+02   4.7933460e-24
   3.4159474e+02   4.7944126e-24
   3.4238246e+02   4.7954957e-24
   3.4317199e+02   4.7965954e-24
   3.4396335e+02   4.7977116e-24
   3.4475653e+02   4.7988445e-24
   3.4555154e+02   4.7999940e-24
   3.4634839e+02   4.8011602e-24
   3.4714707e+02   4.8023432e-24
   3.4794759e+02   4.8035429e-24
   3.4874996e+02   4.8047595e-24
   3.4955418e+02   4.8059929e-24
   3.5036026e+02   4.8072432e-24
   3.5116819e+02   4.8085105e-24
   3.5197799e+02   4.8097948e-24
   3.5278965e+02   4.8110961e-24
   3.5360319e+02   4.8124144e-24
   3.5441860e+02   4.8137499e-24
   3.5523589e+02   4.8151025e-24
   3.5605507e+02   4.8164723e-24
   3.5687613e+02   4.8178593e-24
   3.5769909e+02   4.8192636e-24
   3.5852395e+02   4.8206852e-24
   3.5935071e+02   4.8221242e-24
   3.6017937e+02   4.8235806e-24
   3.6100995e+02   4.8250544e-24
   3.6184244e+02   4.8265457e-24
   3.6267685e+02   4.8280545e-24
   3.6351319e+02   4.8295809e-24
   3.6435145e+02   4.8311248e-24
   3.6519165e+02   4.8326865e-24
   3.6603379e+02   4.8342658e-24
   3.6687786e+02   4.8358629e-24
   3.6772389e+02   4.8374777e-24
   3.6857186e+02   4.8391104e-24
   3.6942179e+02   4.8407609e-24
   3.7027368e+02   4.8424294e-24
   3.7112753e+02   4.8441158e-24
   3.7198336e+02   4.8458202e-24
   3.7284115e+02   4.8475426e-24
   3.7370093e+02   4.8492831e-24
   3.7456268e+02   4.8510418e-24
   3.7542643e+02   4.8528186e-24
   3.7629216e+02   4.8546137e-24
   3.7715990e+02   4.8564270e-24
   3.7802963e+02   4.8582587e-24
   3.7890137e+02   4.8601086e-24
   3.7977512e+02   4.8619770e-24
   3.8065088e+02   4.8638639e-24
   3.8152867e+02   4.8657692e-24
   3.8240848e+02   4.8676931e-24
   3.8329031e+02   4.8696356e-24
   3.8417418e+02   4.8715968e-24
   3.8506009e+02   4.8735766e-24
   3.8594804e+02   4.8755751e-24
   3.8683804e+02   4.8775925e-24
   3.8773009e+02   4.8796287e-24
   3.8862420e+02   4.8816838e-24
   3.8952037e+02   4.8837578e-24
   3.9041861e+02   4.8858508e-24
   3.9131892e+02   4.8879629e-24
   3.9222130e+02   4.8900941e-24
   3.9312577e+02   4.8922445e-24
   3.9403232e+02   4.8944140e-24
   3.9494096e+02   4.8966029e-24
   3.9585170e+02   4.8988111e-24
   3.9676453e+02   4.9010387e-24
   3.9767948e+02   4.9032858e-24
   3.9859653e+02   4.9055525e-24
   3.9951569e+02   4.9078387e-24
   4.0043698e+02   4.9101447e-24
   4.0136039e+02   4.9124704e-24
   4.0228593e+02   4.9148159e-24
   4.0321361e+02   4.9171815e-24
   4.0414342e+02   4.9195670e-24
   4.0507538e+02   4.9219727e-24
   4.0600948e+02   4.9243987e-24
   4.0694575e+02   4.9268450e-24
   4.0788417e+02   4.9293118e-24
   4.0882475e+02   4.9317993e-24
   4.0976750e+02   4.9343077e-24
   4.1071243e+02   4.9368370e-24
   4.1165954e+02   4.9393877e-24
   4.1260883e+02   4.9419598e-24
   4.1356030e+02   4.9445537e-24
   4.1451398e+02   4.9471697e-24
   4.1546985e+02   4.9498083e-24
   4.1642793e+02   4.9524700e-24
   4.1738821e+02   4.9551552e-24
   4.1835071e+02   4.9578649e-24
   4.1931543e+02   4.9606000e-24
   4.2028238e+02   4.9633615e-24
   4.2125155e+02   4.9661511e-24
   4.2222296e+02   4.9689708e-24
   4.2319661e+02   4.9718231e-24
   4.2417251e+02   4.9747119e-24
   4.2515065e+02   4.9776421e-24
   4.2613105e+02   4.9806210e-24
   4.2711371e+02   4.9836593e-24
   4.2809864e+02   4.9867732e-24
   4.2908584e+02   4.9899885e-24
   4.3007531e+02   4.9933480e-24
   4.3106707e+02   4.9969274e-24
   4.3206111e+02   5.0008714e-24
   4.3305745e+02   5.0054845e-24
   4.3405608e+02   5.0115051e-24
   4.3505702e+02   5.0211316e-24
   4.3606027e+02   5.0436156e-24
   4.3706582e+02   5.1617919e-24
   4.3807370e+02   1.2357846e-23
   4.3908390e+02   5.1174245e-24
   4.4009643e+02   5.0485476e-24
   4.4111130e+02   5.0369685e-24
   4.4212851e+02   5.0348205e-24
   4.4314806e+02   5.0355198e-24
   4.4416996e+02   5.0373735e-24
   4.4519422e+02   5.0397892e-24
   4.4622084e+02   5.0425160e-24
   4.4724983e+02   5.0454334e-24
   4.4828119e+02   5.0484775e-24
   4.4931493e+02   5.0516119e-24
   4.5035105e+02   5.0548148e-24
   4.5138957e+02   5.0580723e-24
   4.5243047e+02   5.0613754e-24
   4.5347378e+02   5.0647180e-24
   4.5451950e+02   5.0680958e-24
   4.5556762e+02   5.0715059e-24
   4.5661816e+02   5.0749460e-24
   4.5767113e+02   5.0784144e-24
   4.5872652e+02   5.0819101e-24
   4.5978435e+02   5.0854321e-24
   4.6084462e+02   5.0889797e-24
   4.6190733e+02   5.0925523e-24
   4.6297249e+02   5.0961495e-24
   4.6404011e+02   5.0997711e-24
   4.6511019e+02   5.1034167e-24
   4.6618273e+02   5.1070862e-24
   4.6725776e+02   5.1107793e-24
   4.6833526e+02   5.1144961e-24
   4.6941524e+02   5.1182363e-24
   4.7049772e+02   5.1220000e-24
   4.7158269e+02   5.1257870e-24
   4.7267016e+02   5.1295974e-24
   4.7376014e+02   5.1334311e-24
   4.7485264e+02   5.1372881e-24
   4.7594765e+02   5.1411684e-24
   4.7704519e+02   5.1450720e-24
   4.7814526e+02   5.1489989e-24
   4.7924786e+02   5.1529491e-24
   4.8035301e+02   5.1569227e-24
   4.8146071e+02   5.1609196e-24
   4.8257096e+02   5.1649400e-24
   4.8368378e+02   5.1689837e-24
   4.8479915e+02   5.1730509e-24
   4.8591711e+02   5.1771417e-24
   4.8703763e+02   5.1812559e-24
   4.8816075e+02   5.1853937e-24
   4.8928645e+02   5.1895551e-24
   4.9041475e+02   5.1937401e-24
   4.9154565e+02   5.1979488e-24
   4.9267916e+02   5.2021812e-24
   4.9381528e+02   5.2064374e-24
   4.9495402e+02   5.2107174e-24
   4.9609539e+02   5.2150213e-24
   4.9723939e+02   5.2193490e-24
   4.9838602e+02   5.2237007e-24
   4.9953531e+02   5.2280764e-24
   5.0068724e+02   5.2324761e-24
   5.0184183e+02   5.2368999e-24
   5.0299908e+02   5.2413478e-24
   5.0415900e+02   5.2458199e-24
   5.0532159e+02   5.2503162e-24
   5.0648687e+02   5.2548368e-24
   5.0765483e+02   5.2593817e-24
   5.0882549e+02   5.2639510e-24
   5.0999884e+02   5.2685447e-24
   5.1117490e+02   5.2731628e-24
   5.1235368e+02   5.2778055e-24
   5.1353517e+02   5.2824727e-24
   5.1471938e+02   5.2871646e-24
   5.1590633e+02   5.2918811e-24
   5.1709601e+02   5.2966223e-24
   5.1828844e+02   5.3013883e-24
   5.1948362e+02   5.3061790e-24
   5.2068155e+02   5.3109947e-24
   5.2188225e+02   5.3158353e-24
   5.2308571e+02   5.3207008e-24
   5.2429195e+02   5.3255913e-24
   5.2550097e+02   5.3305069e-24
   5.2671278e+02   5.3354476e-24
   5.2792739e+02   5.3404135e-24
   5.2914479e+02   5.3454046e-24
   5.3036500e+02   5.3504209e-24
   5.3158803e+02   5.3554626e-24
   5.3281387e+02   5.3605297e-24
   5.3404255e+02   5.3656221e-24
   5.3527405e+02   5.3707401e-24
   5.3650840e+02   5.3758835e-24
   5.3774559e+02   5.3810526e-24
   5.3898564e+02   5.3862472e-24
   5.4022854e+02   5.3914676e-24
   5.4147431e+02   5.3967137e-24
   5.4272296e+02   5.4019855e-24
   5.4397448e+02   5.4072832e-24
   5.4522889e+02   5.4126068e-24
   5.4648619e+02   5.4179563e-24
   5.4774639e+02   5.4233318e-24
   5.4900950e+02   5.4287333e-24
   5.5027552e+02   5.4341609e-24
   5.5154446e+02   5.4396147e-24
   5.5281633e+02   5.4450947e-24
   5.5409112e+02   5.4506009e-24
   5.5536886e+02   5.4561335e-24
   5.5664955e+02   5.4616924e-24
   5.5793319e+02   5.4672777e-24
   5.5921978e+02   5.4728894e-24
   5.6050935e+02   5.4785277e-24
   5.6180189e+02   5.4841925e-24
   5.6309741e+02   5.4898840e-24
   5.6439591e+02   5.4956021e-24
   5.6569742e+02   5.5013469e-24
   5.6700192e+02   5.5071186e-24
   5.6830943e+02   5.5129170e-24
   5.6961995e+02   5.5187424e-24
   5.7093350e+02   5.5245947e-24
   5.7225008e+02   5.5304739e-24
   5.7356969e+02   5.5363802e-24
   5.7489235e+02   5.5423136e-24
   5.7621806e+02   5.5482742e-24
   5.7754682e+02   5.5542620e-24
   5.7887865e+02   5.5602770e-24
   5.8021354e+02   5.5663193e-24
   5.8155152e+02   5.5723890e-24
   5.8289258e+02   5.5784861e-24
   5.8423674e+02   5.5846107e-24
   5.8558399e+02   5.5907628e-24
   5.8693435e+02   5.5969425e-24
   5.8828783e+02   5.6031498e-24
   5.8964443e+02   5.6093848e-24
   5.9100415e+02   5.6156476e-24
   5.9236701e+02   5.6219381e-24
   5.9373301e+02   5.6282565e-24
   5.9510217e+02   5.6346028e-24
   5.9647448e+02   5.6409771e-24
   5.9784995e+02   5.6473793e-24
   5.9922860e+02   5.6538096e-24
   6.0061042e+02   5.6602681e-24
   6.0199543e+02   5.6667547e-24
   6.0338364e+02   5.6732696e-24
   6.0477505e+02   5.6798127e-24
   6.0616966e+02   5.6863842e-24
   6.0756750e+02   5.6929840e-24
   6.0896855e+02   5.6996123e-24
   6.1037284e+02   5.7062692e-24
   6.1178036e+02   5.7129545e-24
   6.1319113e+02   5.7196685e-24
   6.1460516e+02   5.7264112e-24
   6.1602244e+02   5.7331825e-24
   6.1744299e+02   5.7399827e-24
   6.1886682e+02   5.7468117e-24
   6.2029393e+02   5.7536696e-24
   6.2172433e+02   5.7605564e-24
   6.2315804e+02   5.7674722e-24
   6.2459504e+02   5.7744171e-24
   6.2603536e+02   5.7813910e-24
   6.2747901e+02   5.7883942e-24
   6.2892598e+02   5.7954265e-24
   6.3037629e+02   5.8024882e-24
   6.3182994e+02   5.8095791e-24
   6.3328694e+02   5.8166995e-24
   6.3474731e+02   5.8238493e-24
   6.3621104e+02   5.8310286e-24
   6.3767815e+02   5.8382374e-24
   6.3914864e+02   5.8454759e-24
   6.4062252e+02   5.8527440e-24
   6.4209980e+02   5.8600419e-24
   6.4358049e+02   5.8673695e-24
   6.4506459e+02   5.8747270e-24
   6.4655211e+02   5.8821143e-24
   6.4804307e+02   5.8895317e-24
   6.4953746e+02   5.8969790e-24
   6.5103530e+02   5.9044563e-24
   6.5253659e+02   5.9119638e-24
   6.5404134e+02   5.9195015e-24
   6.5554957e+02   5.9270694e-24
   6.5706127e+02   5.9346676e-24
   6.5857646e+02   5.9422961e-24
   6.6009514e+02   5.9499551e-24
   6.6161732e+02   5.9576445e-24
   6.6314302e+02   5.9653644e-24
   6.6467223e+02   5.9731149e-24
   6.6620497e+02   5.9808960e-24
   6.6774125e+02   5.9887078e-24
   6.6928106e+02   5.9965503e-24
   6.7082443e+02   6.0044237e-24
   6.7237136e+02   6.0123279e-24
   6.7392185e+02   6.0202630e-24
   6.7547592e+02   6.0282292e-24
   6.7703357e+02   6.0362263e-24
   6.7859481e+02   6.0442545e-24
   6.8015966e+02   6.0523139e-24
   6.8172811e+02   6.0604045e-24
   6.8330018e+02   6.0685264e-24
   6.8487588e+02   6.0766795e-24
   6.8645521e+02   6.0848641e-24
   6.8803818e+02   6.0930801e-24
   6.8962480e+02   6.1013276e-24
   6.9121508e+02   6.1096067e-24
   6.9280903e+02   6.1179173e-24
   6.9440665e+02   6.1262597e-24
   6.9600796e+02   6.1346338e-24
   6.9761296e+02   6.1430397e-24
   6.9922166e+02   6.1514774e-24
   7.0083407e+02   6.1599470e-24
   7.0245020e+02   6.1684486e-24
   7.0407005e+02   6.1769822e-24
   7.0569364e+02   6.1855480e-24
   7.0732098e+02   6.1941458e-24
   7.0895207e+02   6.2027759e-24
   7.1058691e+02   6.2114382e-24
   7.1222553e+02   6.2201329e-24
   7.1386793e+02   6.2288599e-24
   7.1551412e+02   6.2376194e-24
   7.1716410e+02   6.2464114e-24
   7.1881788e+02   6.2552359e-24
   7.2047548e+02   6.2640931e-24
   7.2213690e+02   6.2729830e-24
   7.2380216e+02   6.2819056e-24
   7.2547125e+02   6.2908610e-24
   7.2714419e+02   6.2998492e-24
   7.2882099e+02   6.3088704e-24
   7.3050166e+02   6.3179246e-24
   7.3218620e+02   6.3270118e-24
   7.3387463e+02   6.3361322e-24
   7.3556695e+02   6.3452856e-24
   7.3726317e+02   6.3544724e-24
   7.3896331e+02   6.3636924e-24
   7.4066736e+02   6.3729458e-24
   7.4237535e+02   6.3822325e-24
   7.4408727e+02   6.3915528e-24
   7.4580314e+02   6.4009066e-24
   7.4752297e+02   6.4102939e-24
   7.4924676e+02   6.4197150e-24
   7.5097453e+02   6.4291697e-24
   7.5270628e+02   6.4386583e-24
   7.5444203e+02   6.4481807e-24
   7.5618178e+02   6.4577369e-24
   7.5792554e+02   6.4673272e-24
   7.5967332e+02   6.4769515e-24
   7.6142514e+02   6.4866099e-24
   7.6318099e+02   6.4963024e-24
   7.6494089e+02   6.5060292e-24
   7.6670485e+02   6.5157902e-24
   7.6847288e+02   6.5255856e-24
   7.7024498e+02   6.5354153e-24
   7.7202117e+02   6.5452796e-24
   7.7380146e+02   6.5551784e-24
   7.7558585e+02   6.5651118e-24
   7.7737436e+02   6.5750798e-24
   7.7916699e+02   6.5850826e-24
   7.8096375e+02   6.5951202e-24
   7.8276466e+02   6.6051926e-24
   7.8456972e+02   6.6152999e-24
   7.8637895e+02   6.6254423e-24
   7.8819234e+02   6.6356197e-24
   7.9000992e+02   6.6458322e-24
   7.9183169e+02   6.6560798e-24
   7.9365766e+02   6.6663628e-24
   7.9548784e+02   6.6766810e-24
   7.9732224e+02   6.6870347e-24
   7.9916087e+02   6.6974238e-24
   8.0100374e+02   6.7078484e-24
   8.0285086e+02   6.7183086e-24
   8.0470224e+02   6.7288044e-24
   8.0655789e+02   6.7393361e-24
   8.0841782e+02   6.7499035e-24
   8.1028204e+02   6.7605068e-24
   8.1215056e+02   6.7711461e-24
   8.1402338e+02   6.7818214e-24
   8.1590052e+02   6.7925329e-24
   8.1778200e+02   6.8032806e-24
   8.1966781e+02   6.8140646e-24
   8.2155797e+02   6.8248851e-24
   8.2345249e+02   6.8357420e-24
   8.2535138e+02   6.8466357e-24
   8.2725464e+02   6.8575662e-24
   8.2916230e+02   6.8685338e-24
   8.3107435e+02   6.8795385e-24
   8.3299082e+02   6.8905808e-24
   8.3491170e+02   6.9016610e-24
   8.3683701e+02   6.9127796e-24
   8.3876676e+02   6.9239374e-24
   8.4070097e+02   6.9351355e-24
   8.4263963e+02   6.9463758e-24
   8.4458276e+02   6.9576614e-24
   8.4653038e+02   6.9689981e-24
   8.4848248e+02   6.9803979e-24
   8.5043909e+02   6.9918881e-24
   8.5240021e+02   7.0035460e-24
   8.5436585e+02   7.0156636e-24
   8.5633603e+02   7.0302643e-24
   8.5831074e+02   7.2896189e-24
   8.6029001e+02   7.0566933e-24
   8.6227385e+02   7.0621468e-24
   8.6426226e+02   7.0728352e-24
   8.6625525e+02   7.0841970e-24
   8.6825285e+02   7.0957677e-24
   8.7025504e+02   7.1074408e-24
   8.7226186e+02   7.1191815e-24
   8.7427330e+02   7.1309757e-24
   8.7628938e+02   7.1428169e-24
   8.7831011e+02   7.1547016e-24
   8.8033550e+02   7.1666280e-24
   8.8236556e+02   7.1785951e-24
   8.8440030e+02   7.1906022e-24
   8.8643974e+02   7.2026489e-24
   8.8848387e+02   7.2147350e-24
   8.9053272e+02   7.2268603e-24
   8.9258630e+02   7.2390247e-24
   8.9464461e+02   7.2512283e-24
   8.9670767e+02   7.2634709e-24
   8.9877548e+02   7.2757527e-24
   9.0084807e+02   7.2880736e-24
   9.0292543e+02   7.3004336e-24
   9.0500758e+02   7.3128329e-24
   9.0709454e+02   7.3252714e-24
   9.0918630e+02   7.3377492e-24
   9.1128289e+02   7.3502665e-24
   9.1338432e+02   7.3628231e-24
   9.1549059e+02   7.3754192e-24
   9.1760172e+02   7.3880549e-24
   9.1971771e+02   7.4007302e-24
   9.2183859e+02   7.4134452e-24
   9.2396436e+02   7.4262000e-24
   9.2609503e+02   7.4389946e-24
   9.2823061e+02   7.4518290e-24
   9.3037112e+02   7.4647035e-24
   9.3251656e+02   7.4776180e-24
   9.3466695e+02   7.4905726e-24
   9.3682230e+02   7.5035674e-24
   9.3898262e+02   7.5166024e-24
   9.4114792e+02   7.5296778e-24
   9.4331821e+02   7.5427935e-24
   9.4549351e+02   7.5559498e-24
   9.4767383e+02   7.5691465e-24
   9.4985917e+02   7.5823839e-24
   9.5204955e+02   7.5956620e-24
   9.5424499e+02   7.6089809e-24
   9.5644548e+02   7.6223406e-24
   9.5865105e+02   7.6357412e-24
   9.6086171e+02   7.6491829e-24
   9.6307746e+02   7.6626656e-24
   9.6529833e+02   7.6761894e-24
   9.6752431e+02   7.6897544e-24
   9.6975543e+02   7.7033608e-24
   9.7199169e+02   7.7170085e-24
   9.7423312e+02   7.7306977e-24
   9.7647970e+02   7.7444284e-24
   9.7873147e+02   7.7582007e-24
   9.8098844e+02   7.7720147e-24
   9.8325060e+02   7.7858704e-24
   9.8551799e+02   7.7997679e-24
   9.8779060e+02   7.8137074e-24
   9.9006845e+02   7.8276889e-24
   9.9235156e+02   7.8417124e-24
   9.9463993e+02   7.8557781e-24
   9.9693357e+02   7.8698860e-24
   9.9923251e+02   7.8840361e-24
   1.0015367e+03   7.8982287e-24
   1.0038463e+03   7.9124637e-24
   1.0061612e+03   7.9267413e-24
   1.0084814e+03   7.9410615e-24
   1.0108070e+03   7.9554243e-24
   1.0131379e+03   7.9698300e-24
   1.0154742e+03   7.9842785e-24
   1.0178159e+03   7.9987699e-24
   1.0201630e+03   8.0133044e-24
   1.0225155e+03   8.0278819e-24
   1.0248734e+03   8.0425026e-24
   1.0272368e+03   8.0571666e-24
   1.0296056e+03   8.0718739e-24
   1.0319799e+03   8.0866246e-24
   1.0343596e+03   8.1014188e-24
   1.0367449e+03   8.1162566e-24
   1.0391356e+03   8.1311381e-24
   1.0415319e+03   8.1460633e-24
   1.0439336e+03   8.1610323e-24
   1.0463410e+03   8.1760452e-24
   1.0487538e+03   8.1911021e-24
   1.0511723e+03   8.2062031e-24
   1.0535963e+03   8.2213483e-24
   1.0560259e+03   8.2365377e-24
   1.0584611e+03   8.2517714e-24
   1.0609019e+03   8.2670495e-24
   1.0633483e+03   8.2823721e-24
   1.0658004e+03   8.2977392e-24
   1.0682582e+03   8.3131510e-24
   1.0707216e+03   8.3286076e-24
   1.0731907e+03   8.3441090e-24
   1.0756655e+03   8.3596553e-24
   1.0781460e+03   8.3752465e-24
   1.0806322e+03   8.3908829e-24
   1.0831241e+03   8.4065644e-24
   1.0856218e+03   8.4222912e-24
   1.0881253e+03   8.4380633e-24
   1.0906345e+03   8.4538808e-24
   1.0931495e+03   8.4697439e-24
   1.0956703e+03   8.4856525e-24
   1.0981969e+03   8.5016068e-24
   1.1007294e+03   8.5176068e-24
   1.1032677e+03   8.5336528e-24
   1.1058118e+03   8.5497446e-24
   1.1083618e+03   8.5658825e-24
   1.1109177e+03   8.5820665e-24
   1.1134795e+03   8.5982967e-24
   1.1160472e+03   8.6145732e-24
   1.1186208e+03   8.6308960e-24
   1.1212004e+03   8.6472654e-24
   1.1237859e+03   8.6636813e-24
   1.1263773e+03   8.6801438e-24
   1.1289747e+03   8.6966531e-24
   1.1315782e+03   8.7132091e-24
   1.1341876e+03   8.7298121e-24
   1.1368030e+03   8.7464621e-24
   1.1394245e+03   8.7631592e-24
   1.1420520e+03   8.7799035e-24
   1.1446856e+03   8.7966951e-24
   1.1473253e+03   8.8135340e-24
   1.1499710e+03   8.8304204e-24
   1.1526229e+03   8.8473543e-24
   1.1552808e+03   8.8643359e-24
   1.1579449e+03   8.8813652e-24
   1.1606151e+03   8.8984423e-24
   1.1632915e+03   8.9155673e-24
   1.1659741e+03   8.9327404e-24
   1.1686628e+03   8.9499616e-24
   1.1713578e+03   8.9672310e-24
   1.1740589e+03   8.9845486e-24
   1.1767663e+03   9.0019147e-24
   1.1794800e+03   9.0193293e-24
   1.1821998e+03   9.0367925e-24
   1.1849260e+03   9.0543043e-24
   1.1876585e+03   9.0718650e-24
   1.1903972e+03   9.0894746e-24
   1.1931423e+03   9.1071332e-24
   1.1958937e+03   9.1248410e-24
   1.1986514e+03   9.1425980e-24
   1.2014155e+03   9.1604045e-24
   1.2041860e+03   9.1782605e-24
   1.2069628e+03   9.1961663e-24
   1.2097461e+03   9.2141220e-24
   1.2125358e+03   9.2321280e-24
   1.2153319e+03   9.2501847e-24
   1.2181345e+03   9.2682927e-24
   1.2209435e+03   9.2864530e-24
   1.2237590e+03   9.3046673e-24
   1.2265810e+03   9.3229394e-24
   1.2294095e+03   9.3412779e-24
   1.2322445e+03   9.3597078e-24
   1.2350861e+03   9.3783305e-24
   1.2379342e+03   9.3979812e-24
   1.2407889e+03   1.3284422e-23
   1.2436502e+03   9.4348813e-24
   1.2465180e+03   9.4524110e-24
   1.2493925e+03   9.4708665e-24
   1.2522736e+03   9.4895039e-24
   1.2551614e+03   9.5082303e-24
   1.2580558e+03   9.5270228e-24
   1.2609569e+03   9.5458735e-24
   1.2638646e+03   9.5647794e-24
   1.2667791e+03   9.5837389e-24
   1.2697003e+03   9.6027513e-24
   1.2726283e+03   9.6218162e-24
   1.2755630e+03   9.6409334e-24
   1.2785044e+03   9.6601030e-24
   1.2814527e+03   9.6793248e-24
   1.2844077e+03   9.6985989e-24
   1.2873696e+03   9.7179254e-24
   1.2903382e+03   9.7373043e-24
   1.2933138e+03   9.7567356e-24
   1.2962962e+03   9.7762195e-24
   1.2992854e+03   9.7957561e-24
   1.3022816e+03   9.8153454e-24
   1.3052847e+03   9.8349876e-24
   1.3082947e+03   9.8546827e-24
   1.3113116e+03   9.8744308e-24
   1.3143355e+03   9.8942321e-24
   1.3173664e+03   9.9140866e-24
   1.3204042e+03   9.9339944e-24
   1.3234491e+03   9.9539557e-24
   1.3265010e+03   9.9739706e-24
   1.3295599e+03   9.9940391e-24
   1.3326259e+03   1.0014161e-23
   1.3356989e+03   1.0034337e-23
   1.3387790e+03   1.0054568e-23
   1.3418663e+03   1.0074852e-23
   1.3449606e+03   1.0095190e-23
   1.3480621e+03   1.0115583e-23
   1.3511708e+03   1.0136030e-23
   1.3542866e+03   1.0156531e-23
   1.3574096e+03   1.0177087e-23
   1.3605398e+03   1.0197698e-23
   1.3636772e+03   1.0218364e-23
   1.3668218e+03   1.0239084e-23
   1.3699737e+03   1.0259860e-23
   1.3731329e+03   1.0280691e-23
   1.3762993e+03   1.0301577e-23
   1.3794731e+03   1.0322519e-23
   1.3826542e+03   1.0343515e-23
   1.3858426e+03   1.0364568e-23
   1.3890384e+03   1.0385676e-23
   1.3922415e+03   1.0406840e-23
   1.3954520e+03   1.0428060e-23
   1.3986699e+03   1.0449336e-23
   1.4018953e+03   1.0470669e-23
   1.4051281e+03   1.0492057e-23
   1.4083683e+03   1.0513502e-23
   1.4116160e+03   1.0535004e-23
   1.4148712e+03   1.0556562e-23
   1.4181339e+03   1.0578176e-23
   1.4214041e+03   1.0599848e-23
   1.4246819e+03   1.0621576e-23
   1.4279672e+03   1.0643362e-23
   1.4312601e+03   1.0665205e-23
   1.4345606e+03   1.0687105e-23
   1.4378687e+03   1.0709062e-23
   1.4411845e+03   1.0731077e-23
   1.4445079e+03   1.0753150e-23
   1.4478389e+03   1.0775280e-23
   1.4511776e+03   1.0797469e-23
   1.4545241e+03   1.0819715e-23
   1.4578782e+03   1.0842019e-23
   1.4612401e+03   1.0864382e-23
   1.4646097e+03   1.0886803e-23
   1.4679871e+03   1.0909283e-23
   1.4713723e+03   1.0931821e-23
   1.4747653e+03   1.0954418e-23
   1.4781661e+03   1.0977073e-23
   1.4815748e+03   1.0999788e-23
   1.4849913e+03   1.1022561e-23
   1.4884157e+03   1.1045394e-23
   1.4918480e+03   1.1068286e-23
   1.4952882e+03   1.1091238e-23
   1.4987364e+03   1.1114249e-23
   1.5021925e+03   1.1137320e-23
   1.5056565e+03   1.1160451e-23
   1.5091286e+03   1.1183641e-23
   1.5126086e+03   1.1206892e-23
   1.5160967e+03   1.1230203e-23
   1.5195929e+03   1.1253574e-23
   1.5230970e+03   1.1277006e-23
   1.5266093e+03   1.1300498e-23
   1.5301297e+03   1.1324051e-23
   1.5336582e+03   1.1347665e-23
   1.5371948e+03   1.1371340e-23
   1.5407396e+03   1.1395077e-23
   1.5442926e+03   1.1418875e-23
   1.5478537e+03   1.1442734e-23
   1.5514231e+03   1.1466657e-23
   1.5550007e+03   1.1490643e-23
   1.5585865e+03   1.1514694e-23
   1.5621806e+03   1.1538815e-23
   1.5657830e+03   1.1563018e-23
   1.5693937e+03   1.1587365e-23
   1.5730128e+03   1.1612510e-23
   1.5766401e+03   1.1647508e-23
   1.5802759e+03   1.1660624e-23
   1.5839200e+03   1.1684819e-23
   1.5875725e+03   1.1709294e-23
   1.5912335e+03   1.1733873e-23
   1.5949029e+03   1.1758527e-23
   1.5985807e+03   1.1783249e-23
   1.6022671e+03   1.1808037e-23
   1.6059619e+03   1.1832890e-23
   1.6096653e+03   1.1857807e-23
   1.6133772e+03   1.1882788e-23
   1.6170976e+03   1.1907834e-23
   1.6208267e+03   1.1932943e-23
   1.6245643e+03   1.1958116e-23
   1.6283106e+03   1.1983354e-23
   1.6320655e+03   1.2008656e-23
   1.6358290e+03   1.2034022e-23
   1.6396013e+03   1.2059453e-23
   1.6433822e+03   1.2084949e-23
   1.6471719e+03   1.2110510e-23
   1.6509702e+03   1.2136135e-23
   1.6547774e+03   1.2161826e-23
   1.6585933e+03   1.2187581e-23
   1.6624181e+03   1.2213402e-23
   1.6662516e+03   1.2239289e-23
   1.6700940e+03   1.2265241e-23
   1.6739452e+03   1.2291259e-23
   1.6778054e+03   1.2317343e-23
   1.6816744e+03   1.2343493e-23
   1.6855524e+03   1.2369709e-23
   1.6894393e+03   1.2395991e-23
   1.6933351e+03   1.2422339e-23
   1.6972400e+03   1.2448755e-23
   1.7011538e+03   1.2475237e-23
   1.7050767e+03   1.2501785e-23
   1.7090086e+03   1.2528401e-23
   1.7129496e+03   1.2555084e-23
   1.7168997e+03   1.2581834e-23
   1.7208588e+03   1.2608652e-23
   1.7248272e+03   1.2635537e-23
   1.7288046e+03   1.2662490e-23
   1.7327913e+03   1.2689511e-23
   1.7367871e+03   1.2716599e-23
   1.7407921e+03   1.2743756e-23
   1.7448064e+03   1.2770981e-23
   1.7488300e+03   1.2798274e-23
   1.7528628e+03   1.2825636e-23
   1.7569049e+03   1.2853067e-23
   1.7609563e+03   1.2880566e-23
   1.7650171e+03   1.2908135e-23
   1.7690872e+03   1.2935772e-23
   1.7731668e+03   1.2963479e-23
   1.7772557e+03   1.2991256e-23
   1.7813541e+03   1.3019101e-23
   1.7854619e+03   1.3047017e-23
   1.7895792e+03   1.3075002e-23
   1.7937060e+03   1.3103058e-23
   1.7978423e+03   1.3131183e-23
   1.8019881e+03   1.3159379e-23
   1.8061435e+03   1.3187646e-23
   1.8103085e+03   1.3215983e-23
   1.8144831e+03   1.3244390e-23
   1.8186673e+03   1.3272869e-23
   1.8228611e+03   1.3301419e-23
   1.8270647e+03   1.3330039e-23
   1.8312779e+03   1.3358732e-23
   1.8355008e+03   1.3387495e-23
   1.8397335e+03   1.3416331e-23
   1.8439759e+03   1.3445238e-23
   1.8482282e+03   1.3474217e-23
   1.8524902e+03   1.3503269e-23
   1.8567621e+03   1.3532393e-23
   1.8610438e+03   1.3561589e-23
   1.8653353e+03   1.3590858e-23
   1.8696368e+03   1.3620200e-23
   1.8739482e+03   1.3649616e-23
   1.8782696e+03   1.3679106e-23
   1.8826009e+03   1.3708673e-23
   1.8869422e+03   1.3738321e-23
   1.8912935e+03   1.3768079e-23
   1.8956548e+03   1.3798422e-23
   1.9000262e+03   1.3828581e-23
   1.9044077e+03   1.3857652e-23
   1.9087992e+03   1.3887596e-23
   1.9132009e+03   1.3917657e-23
   1.9176128e+03   1.3947802e-23
   1.9220348e+03   1.3978024e-23
   1.9264671e+03   1.4008323e-23
   1.9309095e+03   1.4038698e-23
   1.9353622e+03   1.4069148e-23
   1.9398252e+03   1.4099673e-23
   1.9442984e+03   1.4130274e-23
   1.9487820e+03   1.4160951e-23
   1.9532759e+03   1.4191703e-23
   1.9577802e+03   1.4222532e-23
   1.9622948e+03   1.4253436e-23
   1.9668199e+03   1.4284417e-23
   1.9713554e+03   1.4315474e-23
   1.9759013e+03   1.4346608e-23
   1.9804578e+03   1.4377818e-23
   1.9850247e+03   1.4409106e-23
   1.9896022e+03   1.4440470e-23
   1.9941903e+03   1.4471912e-23
   1.9987889e+03   1.4503431e-23
   2.0033981e+03   1.4535027e-23
   2.0080179e+03   1.4566701e-23
   2.0126484e+03   1.4598453e-23
   2.0172896e+03   1.4630283e-23
   2.0219415e+03   1.4662192e-23
   2.0266041e+03   1.4694178e-23
   2.0312775e+03   1.4726244e-23
   2.0359616e+03   1.4758387e-23
   2.0406566e+03   1.4790610e-23
   2.0453623e+03   1.4822912e-23
   2.0500790e+03   1.4855293e-23
   2.0548065e+03   1.4887754e-23
   2.0595449e+03   1.4920294e-23
   2.0642942e+03   1.4952914e-23
   2.0690545e+03   1.4985613e-23
   2.0738257e+03   1.5018393e-23
   2.0786080e+03   1.5051253e-23
   2.0834013e+03   1.5084194e-23
   2.0882056e+03   1.5117215e-23
   2.0930210e+03   1.5150316e-23
   2.0978475e+03   1.5183499e-23
   2.1026852e+03   1.5216763e-23
   2.1075340e+03   1.5250108e-23
   2.1123940e+03   1.5283535e-23
   2.1172652e+03   1.5317043e-23
   2.1221476e+03   1.5350634e-23
   2.1270413e+03   1.5384306e-23
   2.1319463e+03   1.5418060e-23
   2.1368626e+03   1.5451897e-23
   2.1417902e+03   1.5485816e-23
   2.1467292e+03   1.5519818e-23
   2.1516796e+03   1.5553903e-23
   2.1566413e+03   1.5588071e-23
   2.1616146e+03   1.5622322e-23
   2.1665993e+03   1.5656657e-23
   2.1715955e+03   1.5691075e-23
   2.1766032e+03   1.5725577e-23
   2.1816224e+03   1.5760163e-23
   2.1866533e+03   1.5794834e-23
   2.1916957e+03   1.5829588e-23
   2.1967498e+03   1.5864428e-23
   2.2018155e+03   1.5899352e-23
   2.2068929e+03   1.5934360e-23
   2.2119820e+03   1.5969454e-23
   2.2170829e+03   1.6004634e-23
   2.2221955e+03   1.6039899e-23
   2.2273199e+03   1.6075249e-23
   2.2324561e+03   1.6110686e-23
   2.2376042e+03   1.6146209e-23
   2.2427641e+03   1.6181820e-23
   2.2479359e+03   1.6217523e-23
   2.2531197e+03   1.6253366e-23
   2.2583154e+03   1.6289723e-23
   2.2635231e+03   1.6325139e-23
   2.2687428e+03   1.6361164e-23
   2.2739745e+03   1.6397289e-23
   2.2792183e+03   1.6433505e-23
   2.2844742e+03   1.6469809e-23
   2.2897422e+03   1.6506201e-23
   2.2950224e+03   1.6542682e-23
   2.3003147e+03   1.6579251e-23
   2.3056193e+03   1.6615908e-23
   2.3109361e+03   1.6652655e-23
   2.3162651e+03   1.6689490e-23
   2.3216064e+03   1.6726414e-23
   2.3269601e+03   1.6763428e-23
   2.3323261e+03   1.6800531e-23
   2.3377044e+03   1.6837723e-23
   2.3430952e+03   1.6875006e-23
   2.3484984e+03   1.6912379e-23
   2.3539140e+03   1.6949842e-23
   2.3593422e+03   1.6987395e-23
   2.3647828e+03   1.7025039e-23
   2.3702360e+03   1.7062774e-23
   2.3757018e+03   1.7100600e-23
   2.3811802e+03   1.7138517e-23
   2.3866712e+03   1.7176526e-23
   2.3921749e+03   1.7214626e-23
   2.3976913e+03   1.7252818e-23
   2.4032204e+03   1.7291102e-23
   2.4087622e+03   1.7329479e-23
   2.4143168e+03   1.7367948e-23
   2.4198843e+03   1.7406510e-23
   2.4254646e+03   1.7445164e-23
   2.4310577e+03   1.7483912e-23
   2.4366637e+03   1.7522753e-23
   2.4422827e+03   1.7561687e-23
   2.4479146e+03   1.7600715e-23
   2.4535595e+03   1.7639837e-23
   2.4592175e+03   1.7679053e-23
   2.4648884e+03   1.7718364e-23
   2.4705725e+03   1.7757768e-23
   2.4762696e+03   1.7797268e-23
   2.4819799e+03   1.7836863e-23
   2.4877034e+03   1.7876553e-23
   2.4934401e+03   1.7916338e-23
   2.4991900e+03   1.7956218e-23
   2.5049531e+03   1.7996195e-23
   2.5107295e+03   1.8036267e-23
   2.5165193e+03   1.8076436e-23
   2.5223224e+03   1.8116701e-23
   2.5281389e+03   1.8157063e-23
   2.5339688e+03   1.8197521e-23
   2.5398122e+03   1.8238077e-23
   2.5456690e+03   1.8278730e-23
   2.5515393e+03   1.8319480e-23
   2.5574232e+03   1.8360328e-23
   2.5633206e+03   1.8401275e-23
   2.5692317e+03   1.8442319e-23
   2.5751563e+03   1.8483461e-23
   2.5810947e+03   1.8524702e-23
   2.5870467e+03   1.8566042e-23
   2.5930124e+03   1.8607481e-23
   2.5989920e+03   1.8649019e-23
   2.6049852e+03   1.8690657e-23
   2.6109924e+03   1.8732394e-23
   2.6170133e+03   1.8774231e-23
   2.6230482e+03   1.8816169e-23
   2.6290970e+03   1.8858207e-23
   2.6351597e+03   1.8900345e-23
   2.6412364e+03   1.8942584e-23
   2.6473271e+03   1.8984925e-23
   2.6534318e+03   1.9027368e-23
   2.6595507e+03   1.9069940e-23
   2.6656836e+03   1.9112587e-23
   2.6718307e+03   1.9155302e-23
   2.6779920e+03   1.9198148e-23
   2.6841674e+03   1.9241098e-23
   2.6903571e+03   1.9284151e-23
   2.6965611e+03   1.9327307e-23
   2.7027794e+03   1.9370566e-23
   2.7090121e+03   1.9413928e-23
   2.7152591e+03   1.9457394e-23
   2.7215205e+03   1.9500964e-23
   2.7277963e+03   1.9544638e-23
   2.7340866e+03   1.9588416e-23
   2.7403915e+03   1.9632298e-23
   2.7467108e+03   1.9676285e-23
   2.7530448e+03   1.9720377e-23
   2.7593933e+03   1.9764574e-23
   2.7657565e+03   1.9808876e-23
   2.7721343e+03   1.9853284e-23
   2.7785269e+03   1.9897798e-23
   2.7849342e+03   1.9942418e-23
   2.7913563e+03   1.9987144e-23
   2.7977932e+03   2.0031977e-23
   2.8042449e+03   2.0076916e-23
   2.8107115e+03   2.0121963e-23
   2.8171930e+03   2.0167118e-23
   2.8236895e+03   2.0212383e-23
   2.8302010e+03   2.0257756e-23
   2.8367274e+03   2.0303237e-23
   2.8432689e+03   2.0348826e-23
   2.8498255e+03   2.0394524e-23
   2.8563972e+03   2.0440330e-23
   2.8629841e+03   2.0486245e-23
   2.8695862e+03   2.0532270e-23
   2.8762035e+03   2.0578403e-23
   2.8828360e+03   2.0624647e-23
   2.8894839e+03   2.0671000e-23
   2.8961470e+03   2.0717464e-23
   2.9028256e+03   2.0764038e-23
   2.9095195e+03   2.0810723e-23
   2.9162289e+03   2.0857518e-23
   2.9229537e+03   2.0904425e-23
   2.9296941e+03   2.0951443e-23
   2.9364500e+03   2.0998573e-23
   2.9432215e+03   2.1045814e-23
   2.9500085e+03   2.1093168e-23
   2.9568113e+03   2.1140635e-23
   2.9636297e+03   2.1188213e-23
   2.9704639e+03   2.1235905e-23
   2.9773138e+03   2.1283710e-23
   2.9841795e+03   2.1331629e-23
   2.9910610e+03   2.1379664e-23
   2.9979584e+03   2.1427826e-23
   3.0048718e+03   2.1476103e-23
   3.0118010e+03   2.1524494e-23
   3.0187463e+03   2.1573000e-23
   3.0257075e+03   2.1621621e-23
   3.0326848e+03   2.1670357e-23
   3.0396782e+03   2.1719208e-23
   3.0466877e+03   2.1768175e-23
   3.0537134e+03   2.1817258e-23
   3.0607553e+03   2.1866457e-23
   3.0678134e+03   2.1915773e-23
   3.0748878e+03   2.1965205e-23
   3.0819785e+03   2.2014755e-23
   3.0890856e+03   2.2064423e-23
   3.0962091e+03   2.2116203e-23
   3.1033489e+03   2.2164110e-23
   3.1105053e+03   2.2214128e-23
   3.1176781e+03   2.2264266e-23
   3.1248675e+03   2.2314522e-23
   3.1320735e+03   2.2364898e-23
   3.1392961e+03   2.2415393e-23
   3.1465353e+03   2.2466007e-23
   3.1537913e+03   2.2516741e-23
   3.1610639e+03   2.2567595e-23
   3.1683534e+03   2.2618569e-23
   3.1756596e+03   2.2669664e-23
   3.1829827e+03   2.2720879e-23
   3.1903227e+03   2.2772215e-23
   3.1976796e+03   2.2823673e-23
   3.2050535e+03   2.2875252e-23
   3.2124443e+03   2.2926953e-23
   3.2198523e+03   2.2978776e-23
   3.2272773e+03   2.3030721e-23
   3.2347194e+03   2.3082790e-23
   3.2421787e+03   2.3134981e-23
   3.2496552e+03   2.3187295e-23
   3.2571489e+03   2.3239733e-23
   3.2646599e+03   2.3292294e-23
   3.2721882e+03   2.3344980e-23
   3.2797339e+03   2.3397790e-23
   3.2872970e+03   2.3450724e-23
   3.2948776e+03   2.3503784e-23
   3.3024756e+03   2.3556968e-23
   3.3100911e+03   2.3610279e-23
   3.3177242e+03   2.3663714e-23
   3.3253749e+03   2.3717276e-23
   3.3330432e+03   2.3770964e-23
   3.3407293e+03   2.3824779e-23
   3.3484330e+03   2.3878721e-23
   3.3561545e+03   2.3932790e-23
   3.3638938e+03   2.3986986e-23
   3.3716510e+03   2.4041310e-23
   3.3794261e+03   2.4095762e-23
   3.3872190e+03   2.4150342e-23
   3.3950300e+03   2.4205051e-23
   3.4028590e+03   2.4259889e-23
   3.4107060e+03   2.4314856e-23
   3.4185711e+03   2.4369953e-23
   3.4264543e+03   2.4425179e-23
   3.4343558e+03   2.4480536e-23
   3.4422754e+03   2.4536023e-23
   3.4502133e+03   2.4591640e-23
   3.4581695e+03   2.4647389e-23
   3.4661441e+03   2.4703268e-23
   3.4741371e+03   2.4759280e-23
   3.4821485e+03   2.4815423e-23
   3.4901783e+03   2.4871698e-23
   3.4982267e+03   2.4928106e-23
   3.5062936e+03   2.4984646e-23
   3.5143792e+03   2.5041320e-23
   3.5224834e+03   2.5098127e-23
   3.5306062e+03   2.5155068e-23
   3.5387478e+03   2.5212202e-23
   3.5469082e+03   2.5269352e-23
   3.5550874e+03   2.5326695e-23
   3.5632855e+03   2.5384173e-23
   3.5715024e+03   2.5441786e-23
   3.5797383e+03   2.5499535e-23
   3.5879932e+03   2.5557420e-23
   3.5962672e+03   2.5615441e-23
   3.6045602e+03   2.5673598e-23
   3.6128724e+03   2.5731892e-23
   3.6212037e+03   2.5790323e-23
   3.6295542e+03   2.5848891e-23
   3.6379240e+03   2.5907597e-23
   3.6463130e+03   2.5966441e-23
   3.6547215e+03   2.6025424e-23
   3.6631493e+03   2.6084544e-23
   3.6715965e+03   2.6143804e-23
   3.6800633e+03   2.6203203e-23
   3.6885495e+03   2.6262742e-23
   3.6970553e+03   2.6322420e-23
   3.7055808e+03   2.6382239e-23
   3.7141259e+03   2.6442198e-23
   3.7226907e+03   2.6502298e-23
   3.7312752e+03   2.6562539e-23
   3.7398796e+03   2.6622936e-23
   3.7485038e+03   2.6683481e-23
   3.7571479e+03   2.6744168e-23
   3.7658119e+03   2.6804997e-23
   3.7744959e+03   2.6865969e-23
   3.7831999e+03   2.6927084e-23
   3.7919240e+03   2.6988343e-23
   3.8006682e+03   2.7049745e-23
   3.8094325e+03   2.7111291e-23
   3.8182171e+03   2.7172982e-23
   3.8270220e+03   2.7234817e-23
   3.8358471e+03   2.7296797e-23
   3.8446926e+03   2.7358922e-23
   3.8535585e+03   2.7421194e-23
   3.8624448e+03   2.7483611e-23
   3.8713516e+03   2.7546174e-23
   3.8802790e+03   2.7608885e-23
   3.8892270e+03   2.7671742e-23
   3.8981955e+03   2.7734746e-23
   3.9071848e+03   2.7797898e-23
   3.9161948e+03   2.7861199e-23
   3.9252256e+03   2.7924647e-23
   3.9342772e+03   2.7988244e-23
   3.9433497e+03   2.8051990e-23
   3.9524431e+03   2.8115886e-23
   3.9615574e+03   2.8179931e-23
   3.9706928e+03   2.8244128e-23
   3.9798493e+03   2.8308524e-23
   3.9890268e+03   2.8372969e-23
   3.9982255e+03   2.8437616e-23
   4.0074455e+03   2.8502415e-23
   4.0166867e+03   2.8567366e-23
   4.0259492e+03   2.8632469e-23
   4.0352331e+03   2.8697724e-23
   4.0445383e+03   2.8763132e-23
   4.0538651e+03   2.8828693e-23
   4.0632133e+03   2.8894408e-23
   4.0725831e+03   2.8960276e-23
   4.0819745e+03   2.9026299e-23
   4.0913876e+03   2.9092476e-23
   4.1008224e+03   2.9158809e-23
   4.1102789e+03   2.9225296e-23
   4.1197572e+03   2.9291939e-23
   4.1292574e+03   2.9358738e-23
   4.1387795e+03   2.9425694e-23
   4.1483236e+03   2.9492806e-23
   4.1578896e+03   2.9560075e-23
   4.1674778e+03   2.9627502e-23
   4.1770880e+03   2.9695086e-23
   4.1867204e+03   2.9762828e-23
   4.1963750e+03   2.9830729e-23
   4.2060519e+03   2.9898789e-23
   4.2157511e+03   2.9967008e-23
   4.2254726e+03   3.0035387e-23
   4.2352166e+03   3.0103925e-23
   4.2449830e+03   3.0172624e-23
   4.2547720e+03   3.0241484e-23
   4.2645835e+03   3.0310505e-23
   4.2744177e+03   3.0379687e-23
   4.2842745e+03   3.0449030e-23
   4.2941541e+03   3.0518536e-23
   4.3040565e+03   3.0588205e-23
   4.3139816e+03   3.0658036e-23
   4.3239297e+03   3.0728031e-23
   4.3339007e+03   3.0798189e-23
   4.3438947e+03   3.0868512e-23
   4.3539118e+03   3.0938999e-23
   4.3639519e+03   3.1009650e-23
   4.3740153e+03   3.1080467e-23
   4.3841018e+03   3.1151450e-23
   4.3942115e+03   3.1222603e-23
   4.4043446e+03   3.1293914e-23
   4.4145011e+03   3.1365393e-23
   4.4246810e+03   3.1437041e-23
   4.4348843e+03   3.1508857e-23
   4.4451112e+03   3.1580840e-23
   4.4553616e+03   3.1652992e-23
   4.4656357e+03   3.1725312e-23
   4.4759335e+03   3.1797802e-23
   4.4862551e+03   3.1870460e-23
   4.4966004e+03   3.1943289e-23
   4.5069696e+03   3.2016287e-23
   4.5173627e+03   3.2089456e-23
   4.5277798e+03   3.2162796e-23
   4.5382209e+03   3.2236308e-23
   4.5486860e+03   3.2309991e-23
   4.5591753e+03   3.2383846e-23
   4.5696888e+03   3.2457873e-23
   4.5802266e+03   3.2532074e-23
   4.5907886e+03   3.2606448e-23
   4.6013750e+03   3.2680995e-23
   4.6119858e+03   3.2755717e-23
   4.6226211e+03   3.2830613e-23
   4.6332809e+03   3.2905684e-23
   4.6439653e+03   3.2980931e-23
   4.6546743e+03   3.3056353e-23
   4.6654080e+03   3.3131951e-23
   4.6761665e+03   3.3207726e-23
   4.6869497e+03   3.3283677e-23
   4.6977579e+03   3.3359806e-23
   4.7085910e+03   3.3436113e-23
   4.7194490e+03   3.3512598e-23
   4.7303321e+03   3.3589261e-23
   4.7412403e+03   3.3666104e-23
   4.7521736e+03   3.3743125e-23
   4.7631321e+03   3.3820327e-23
   4.7741160e+03   3.3897710e-23
   4.7851251e+03   3.3975286e-23
   4.7961597e+03   3.4053015e-23
   4.8072196e+03   3.4130939e-23
   4.8183051e+03   3.4209046e-23
   4.8294162e+03   3.4287334e-23
   4.8405528e+03   3.4365806e-23
   4.8517152e+03   3.4444461e-23
   4.8629033e+03   3.4523299e-23
   4.8741172e+03   3.4602321e-23
   4.8853569e+03   3.4681528e-23
   4.8966226e+03   3.4760920e-23
   4.9079142e+03   3.4840496e-23
   4.9192319e+03   3.4920259e-23
   4.9305757e+03   3.5000207e-23
   4.9419457e+03   3.5080342e-23
   4.9533418e+03   3.5160664e-23
   4.9647643e+03   3.5241173e-23
   4.9762131e+03   3.5321871e-23
   4.9876882e+03   3.5402756e-23
   4.9991899e+03   3.5483830e-23
   5.0107181e+03   3.5565093e-23
   5.0222728e+03   3.5646546e-23
   5.0338542e+03   3.5728189e-23
   5.0454623e+03   3.5810022e-23
   5.0570972e+03   3.5892046e-23
   5.0687589e+03   3.5974261e-23
   5.0804475e+03   3.6056669e-23
   5.0921630e+03   3.6139268e-23
   5.1039056e+03   3.6222060e-23
   5.1156753e+03   3.6305045e-23
   5.1274720e+03   3.6388237e-23
   5.1392960e+03   3.6471598e-23
   5.1511473e+03   3.6555163e-23
   5.1630259e+03   3.6638925e-23
   5.1749319e+03   3.6722882e-23
   5.1868653e+03   3.6807035e-23
   5.1988262e+03   3.6891384e-23
   5.2108148e+03   3.6975929e-23
   5.2228309e+03   3.7060672e-23
   5.2348748e+03   3.7145613e-23
   5.2469465e+03   3.7230751e-23
   5.2590460e+03   3.7316088e-23
   5.2711734e+03   3.7401624e-23
   5.2833288e+03   3.7487360e-23
   5.2955122e+03   3.7573295e-23
   5.3077236e+03   3.7659431e-23
   5.3199633e+03   3.7745767e-23
   5.3322312e+03   3.7832305e-23
   5.3445273e+03   3.7919044e-23
   5.3568519e+03   3.8005986e-23
   5.3692048e+03   3.8093130e-23
   5.3815862e+03   3.8180477e-23
   5.3939962e+03   3.8268028e-23
   5.4064348e+03   3.8355783e-23
   5.4189021e+03   3.8443743e-23
   5.4313981e+03   3.8531907e-23
   5.4439230e+03   3.8620277e-23
   5.4564767e+03   3.8708854e-23
   5.4690594e+03   3.8797640e-23
   5.4816711e+03   3.8886627e-23
   5.4943118e+03   3.8975822e-23
   5.5069818e+03   3.9065227e-23
   5.5196809e+03   3.9154840e-23
   5.5324093e+03   3.9244662e-23
   5.5451671e+03   3.9334693e-23
   5.5579543e+03   3.9424934e-23
   5.5707710e+03   3.9515385e-23
   5.5836172e+03   3.9606047e-23
   5.5964931e+03   3.9696920e-23
   5.6093986e+03   3.9788006e-23
   5.6223340e+03   3.9879303e-23
   5.6352991e+03   3.9970813e-23
   5.6482942e+03   4.0062536e-23
   5.6613192e+03   4.0154473e-23
   5.6743742e+03   4.0246624e-23
   5.6874594e+03   4.0338990e-23
   5.7005747e+03   4.0431572e-23
   5.7137202e+03   4.0524368e-23
   5.7268961e+03   4.0617381e-23
   5.7401024e+03   4.0710611e-23
   5.7533391e+03   4.0804058e-23
   5.7666064e+03   4.0897723e-23
   5.7799042e+03   4.0991606e-23
   5.7932327e+03   4.1085708e-23
   5.8065919e+03   4.1180028e-23
   5.8199820e+03   4.1274569e-23
   5.8334029e+03   4.1369330e-23
   5.8468548e+03   4.1464319e-23
   5.8603377e+03   4.1559515e-23
   5.8738517e+03   4.1654939e-23
   5.8873968e+03   4.1750586e-23
   5.9009732e+03   4.1846456e-23
   5.9145809e+03   4.1942549e-23
   5.9282199e+03   4.2038866e-23
   5.9418905e+03   4.2135408e-23
   5.9555925e+03   4.2232174e-23
   5.9693262e+03   4.2329166e-23
   5.9830915e+03   4.2426383e-23
   5.9968885e+03   4.2523827e-23
   6.0107174e+03   4.2621498e-23
   6.0245781e+03   4.2719397e-23
   6.0384709e+03   4.2817524e-23
   6.0523956e+03   4.2915879e-23
   6.0663525e+03   4.3014463e-23
   6.0803416e+03   4.3113277e-23
   6.0943629e+03   4.3212321e-23
   6.1084165e+03   4.3311596e-23
   6.1225026e+03   4.3411102e-23
   6.1366211e+03   4.3510840e-23
   6.1507722e+03   4.3610810e-23
   6.1649559e+03   4.3711013e-23
   6.1791724e+03   4.3811449e-23
   6.1934216e+03   4.3912119e-23
   6.2077037e+03   4.4013024e-23
   6.2220187e+03   4.4114164e-23
   6.2363667e+03   4.4215539e-23
   6.2507478e+03   4.4317151e-23
   6.2651621e+03   4.4419012e-23
   6.2796096e+03   4.4521085e-23
   6.2940904e+03   4.4623408e-23
   6.3086046e+03   4.4725969e-23
   6.3231523e+03   4.4828769e-23
   6.3377336e+03   4.4931809e-23
   6.3523484e+03   4.5035089e-23
   6.3669970e+03   4.5138609e-23
   6.3816793e+03   4.5242371e-23
   6.3963955e+03   4.5346374e-23
   6.4111457e+03   4.5450619e-23
   6.4259298e+03   4.5555107e-23
   6.4407481e+03   4.5659839e-23
   6.4556005e+03   4.5764814e-23
   6.4704871e+03   4.5870034e-23
   6.4854081e+03   4.5975499e-23
   6.5003635e+03   4.6081209e-23
   6.5153534e+03   4.6187166e-23
   6.5303779e+03   4.6293370e-23
   6.5454370e+03   4.6399821e-23
   6.5605308e+03   4.6506520e-23
   6.5756594e+03   4.6613467e-23
   6.5908230e+03   4.6720663e-23
   6.6060215e+03   4.6828109e-23
   6.6212550e+03   4.6935806e-23
   6.6365237e+03   4.7043753e-23
   6.6518275e+03   4.7151951e-23
   6.6671667e+03   4.7260402e-23
   6.6825412e+03   4.7369105e-23
   6.6979512e+03   4.7478062e-23
   6.7133968e+03   4.7587272e-23
   6.7288779e+03   4.7696736e-23
   6.7443947e+03   4.7806456e-23
   6.7599474e+03   4.7916431e-23
   6.7755359e+03   4.8026662e-23
   6.7911603e+03   4.8137150e-23
   6.8068208e+03   4.8247895e-23
   6.8225173e+03   4.8358898e-23
   6.8382501e+03   4.8470160e-23
   6.8540192e+03   4.8581680e-23
   6.8698246e+03   4.8693461e-23
   6.8856665e+03   4.8805502e-23
   6.9015449e+03   4.8917804e-23
   6.9174599e+03   4.9030367e-23
   6.9334116e+03   4.9143193e-23
   6.9494001e+03   4.9256281e-23
   6.9654255e+03   4.9369633e-23
   6.9814878e+03   4.9483249e-23
   6.9975872e+03   4.9597129e-23
   7.0137236e+03   4.9711275e-23
   7.0298973e+03   4.9825687e-23
   7.0461083e+03   4.9940365e-23
   7.0623567e+03   5.0055310e-23
   7.0786426e+03   5.0170523e-23
   7.0949660e+03   5.0286004e-23
   7.1113270e+03   5.0401755e-23
   7.1277258e+03   5.0517775e-23
   7.1441624e+03   5.0634065e-23
   7.1606369e+03   5.0750627e-23
   7.1771494e+03   5.0867459e-23
   7.1936999e+03   5.0984564e-23
   7.2102886e+03   5.1101941e-23
   7.2269156e+03   5.1219592e-23
   7.2435809e+03   5.1337517e-23
   7.2602847e+03   5.1455717e-23
   7.2770270e+03   5.1574192e-23
   7.2938079e+03   5.1692944e-23
   7.3106274e+03   5.1811971e-23
   7.3274858e+03   5.1931276e-23
   7.3443830e+03   5.2050859e-23
   7.3613192e+03   5.2170721e-23
   7.3782945e+03   5.2290862e-23
   7.3953089e+03   5.2411283e-23
   7.4123625e+03   5.2531984e-23
   7.4294555e+03   5.2652967e-23
   7.4465879e+03   5.2774231e-23
   7.4637598e+03   5.2895778e-23
   7.4809713e+03   5.3017608e-23
   7.4982224e+03   5.3139722e-23
   7.5155134e+03   5.3262120e-23
   7.5328442e+03   5.3384804e-23
   7.5502150e+03   5.3507774e-23
   7.5676259e+03   5.3631030e-23
   7.5850769e+03   5.3754573e-23
   7.6025681e+03   5.3878404e-23
   7.6200997e+03   5.4002524e-23
   7.6376717e+03   5.4126933e-23
   7.6552842e+03   5.4251631e-23
   7.6729374e+03   5.4376621e-23
   7.6906312e+03   5.4501901e-23
   7.7083659e+03   5.4627474e-23
   7.7261414e+03   5.4753339e-23
   7.7439580e+03   5.4879497e-23
   7.7618156e+03   5.5005950e-23
   7.7797144e+03   5.5132697e-23
   7.7976545e+03   5.5259740e-23
   7.8156359e+03   5.5387078e-23
   7.8336589e+03   5.5514714e-23
   7.8517233e+03   5.5642646e-23
   7.8698295e+03   5.5770877e-23
   7.8879774e+03   5.5899407e-23
   7.9061671e+03   5.6028237e-23
   7.9243988e+03   5.6157366e-23
   7.9426725e+03   5.6286797e-23
   7.9609884e+03   5.6416530e-23
   7.9793465e+03   5.6546564e-23
   7.9977469e+03   5.6676902e-23
   8.0161898e+03   5.6807544e-23
   8.0346752e+03   5.6938490e-23
   8.0532032e+03   5.7069748e-23
   8.0717739e+03   5.7201299e-23
   8.0903875e+03   5.7333163e-23
   8.1090440e+03   5.7465335e-23
   8.1277435e+03   5.7597814e-23
   8.1464861e+03   5.7730603e-23
   8.1652720e+03   5.7863701e-23
   8.1841012e+03   5.7997109e-23
   8.2029738e+03   5.8130828e-23
   8.2218899e+03   5.8264860e-23
   8.2408496e+03   5.8399203e-23
   8.2598531e+03   5.8533860e-23
   8.2789004e+03   5.8668831e-23
   8.2979916e+03   5.8804117e-23
   8.3171268e+03   5.8939718e-23
   8.3363062e+03   5.9075635e-23
   8.3555298e+03   5.9211869e-23
   8.3747977e+03   5.9348421e-23
   8.3941100e+03   5.9485291e-23
   8.4134669e+03   5.9622481e-23
   8.4328684e+03   5.9759990e-23
   8.4523147e+03   5.9897820e-23
   8.4718058e+03   6.0035972e-23
   8.4913419e+03   6.0174445e-23
   8.5109230e+03   6.0313242e-23
   8.5305492e+03   6.0452362e-23
   8.5502207e+03   6.0591807e-23
   8.5699376e+03   6.0731578e-23
   8.5896999e+03   6.0871674e-23
   8.6095078e+03   6.1012097e-23
   8.6293614e+03   6.1152847e-23
   8.6492608e+03   6.1293926e-23
   8.6692061e+03   6.1435334e-23
   8.6891973e+03   6.1577072e-23
   8.7092347e+03   6.1719140e-23
   8.7293182e+03   6.1861540e-23
   8.7494481e+03   6.2004272e-23
   8.7696244e+03   6.2147338e-23
   8.7898472e+03   6.2290737e-23
   8.8101167e+03   6.2434470e-23
   8.8304329e+03   6.2578539e-23
   8.8507959e+03   6.2722944e-23
   8.8712059e+03   6.2867687e-23
   8.8916630e+03   6.3012766e-23
   8.9121672e+03   6.3158185e-23
   8.9327188e+03   6.3303942e-23
   8.9533177e+03   6.3450040e-23
   8.9739641e+03   6.3596479e-23
   8.9946581e+03   6.3743260e-23
   9.0153999e+03   6.3890383e-23
   9.0361895e+03   6.4037849e-23
   9.0570270e+03   6.4185660e-23
   9.0779126e+03   6.4333816e-23
   9.0988463e+03   6.4482317e-23
   9.1198283e+03   6.4631166e-23
   9.1408587e+03   6.4780361e-23
   9.1619376e+03   6.4929905e-23
   9.1830651e+03   6.5079798e-23
   9.2042413e+03   6.5230041e-23
   9.2254664e+03   6.5380635e-23
   9.2467404e+03   6.5531588e-23
   9.2680634e+03   6.5682879e-23
   9.2894356e+03   6.5834530e-23
   9.3108571e+03   6.5986535e-23
   9.3323280e+03   6.6138895e-23
   9.3538485e+03   6.6291611e-23
   9.3754185e+03   6.6444683e-23
   9.3970383e+03   6.6598113e-23
   9.4187079e+03   6.6751902e-23
   9.4404276e+03   6.6906049e-23
   9.4621973e+03   6.7060557e-23
   9.4840172e+03   6.7215425e-23
   9.5058874e+03   6.7370655e-23
   9.5278080e+03   6.7526248e-23
   9.5497792e+03   6.7682204e-23
   9.5718011e+03   6.7838525e-23
   9.5938737e+03   6.7995210e-23
   9.6159973e+03   6.8152267e-23
   9.6381718e+03   6.8309680e-23
   9.6603975e+03   6.8467467e-23
   9.6826745e+03   6.8625622e-23
   9.7050028e+03   6.8784146e-23
   9.7273826e+03   6.8943041e-23
   9.7498140e+03   6.9102307e-23
   9.7722972e+03   6.9261946e-23
   9.7948322e+03   6.9421957e-23
   9.8174191e+03   6.9582342e-23
   9.8400582e+03   6.9743103e-23
   9.8627494e+03   6.9904239e-23
   9.8854930e+03   7.0065751e-23
   9.9082890e+03   7.0227641e-23
   9.9311376e+03   7.0389909e-23
   9.9540389e+03   7.0552557e-23
   9.9769930e+03   7.0715585e-23
   1.0000000e+04   7.0878994e-23

